{
  "model": "StudentSuspendActions",
  "title": "Student Suspend",
  "settings": {
    "i18n": {
      "el": {
        "Student Suspend": "Αναστολή Φοιτητή"
      }
    }
  },
  "components": [
    {
      "type": "fieldset",
      "legend": "Student Suspend Information",
      "components": [
        {
          "columns": [
            {
              "components": [
                {
                  "label": "Suspend Date",
                  "key": "suspensionDate",
                  "enableTime": false,
                  "labelPosition": "top",
                  "widget": {
                    "type": "input"
                  },
                  "type": "datetime",
                  "format": "dd/MM/yyyy",
                  "input": true,
                  "disabled": true
                }
              ],
              "width": 4
            },
            {
              "components": [
                {
                  "label": "Suspend Year",
                  "labelPosition": "top",
                  "key": "suspensionYear.alternateName",
                  "type": "select",
                  "searchEnabled": false,
                  "dataSrc": "url",
                  "data": {
                    "url": "AcademicYears?$top={{limit}}&$skip={{skip}}&$orderby=id desc",
                    "headers": []
                  },
                  "limit": 20,
                  "template": "{{ item.alternateName }}",
                  "input": true,
                  "lazyLoad": true,
                  "selectValues": "value",
                  "widget": "choicesjs",
                  "disabled": true
                }
              ],
              "width": 4
            },
            {
              "components": [
                {
                  "label": "Suspend Period",
                  "labelPosition": "top",
                  "widget": "choicesjs",
                  "dataSrc": "url",
                  "data": {
                    "url": "AcademicPeriods",
                    "headers": []
                  },
                  "template": "{{ item.name }}",
                  "selectValues": "value",
                  "key": "suspensionPeriod.name",
                  "type": "select",
                  "input": true,
                  "searchEnabled": false,
                  "disabled": true
                }
              ],
              "width": 4
            },
            {
              "components": [
                {
                  "label": "Suspend Periods",
                  "labelPosition": "top",
                  "dataSrc": "url",
                  "widget": {
                    "type": "input"
                  },
                  "data": {
                  },
                  "template": "{{ item.name }}",
                  "selectValues": "value",
                  "key": "suspensionPeriods",
                  "type": "number",
                  "input": true,
                  "searchEnabled": false,
                  "disabled": true
                }
              ],
              "width": 4
            },
            {
              "components": [
                {
                  "label": "Suspend Expired Date",
                  "key": "suspensionExpiredDate",
                  "labelPosition": "top",
                  "widget": {
                    "type": "input"
                  },
                  "disabled": true,
                  "type": "datetime",
                  "format": "dd/MM/yyyy",
                  "input": true
                }
              ],
              "width": 4
            },
            {
              "components": [
                {
                  "label": "Suspend Type",
                  "labelPosition": "top",
                  "widget": {
                    "type": "input"
                  },
                  "disabled": true,
                  "key": "suspensionType",
                  "type": "textfield",
                  "input": true
                }
              ],
              "width": 4
            },
            {
              "components": [
                {
                  "label": "Suspend Comments",
                  "labelPosition": "top",
                  "widget": {
                    "type": "input"
                  },
                  "disabled": true,
                  "key": "comments",
                  "type": "textarea",
                  "input": true
                }
              ],
              "width": 12
            }
          ],
          "customClass": "text-dark",
          "hideLabel": true,
          "type": "columns",
          "input": false
        }
      ]
    }
  ],
  "width": 3
}
