{
  "components": [
    {
      "label": "Columns",
      "columns": [
        {
          "components": [
            {
              "label": "Documents.DocumentNumber",
              "spellcheck": true,
              "tableView": true,
              "validate": {
                "unique": false,
                "multiple": false
              },
              "key": "documentNumber",
              "type": "textfield",
              "input": true,
              "hideOnChildrenHidden": false
            },
            {
              "label": "Documents.Description",
              "spellcheck": true,
              "tableView": true,
              "validate": {
                "unique": false,
                "multiple": false
              },
              "key": "description",
              "type": "textfield",
              "input": true,
              "hideOnChildrenHidden": false
            }
          ],
          "width": 6,
          "offset": 0,
          "push": 0,
          "pull": 0
        },
        {
          "components": [
            {
              "label": "Documents.Signed",
              "widget": "choicesjs",
              "data": {
                "values": [
                  {
                    "label": "No",
                    "value": "0"
                  },
                  {
                    "label": "Yes",
                    "value": "1"
                  }
                ]
              },
              "selectThreshold": 0.3,
              "validate": {
                "unique": false,
                "multiple": false
              },
              "key": "signed",
              "valueProperty": "value",
              "selectValues": "value",
              "type": "select",
              "input": true,
              "searchEnabled": false,
              "hideOnChildrenHidden": false,
              "disableLimit": false,
              "lazyLoad": false
            },
            {
              "label": "Documents.Published",
              "widget": "choicesjs",
              "data": {
                "values": [
                  {
                    "label": "No",
                    "value": "0"
                  },
                  {
                    "label": "Yes",
                    "value": "1"
                  }
                ]
              },
              "selectThreshold": 0.3,
              "validate": {
                "unique": false,
                "multiple": false
              },
              "key": "published",
              "valueProperty": "value",
              "selectValues": "value",
              "type": "select",
              "input": true,
              "searchEnabled": false,
              "hideOnChildrenHidden": false,
              "disableLimit": false,
              "lazyLoad": false
            }
          ],
          "width": 3,
          "offset": 0,
          "push": 0,
          "pull": 0
        }
      ],
      "tableView": false,
      "key": "department",
      "type": "columns",
      "input": false,
      "path": "columns"
    }
  ]
}
