{
    "title": "Internships.active-active-students",
    "model": "Internships",
    "searchExpression": "indexof(student/person/familyName, '${text}') ge 0 or indexof(student/studentIdentifier, '${text}') ge 0 or indexof(student/person/givenName, '${text}') ge 0 or indexof(name, '${text}') ge 0",
    "columns": [
        {
            "name": "student",
            "hidden" : "true"
        },
        {
            "name": "id",
            "formatter": "ActionLinkFormatter",
            "actions": [
                {
                    "title": "Internships.Preview",
                    "href": "#/internships/${id}"
                },
                {
                    "title": "Internships.PreviewStudent",
                    "href": "#/students/${student}/dashboard/overview"
                },
                {
                    "title": "Internships.Edit",
                    "href": "#/internships/${id}/edit"
                }
            ]
        },
        {
            "name": "name",
            "title": "Internships.Subject"
        },
        {
            "name": "student/studentIdentifier",
            "property": "studentIdentifier",
            "title": "Students.studentIdentifier"
        },
        {
            "name": "student/person/givenName",
            "property": "givenName",
            "hidden": true
        },
        {
            "name": "student/person/familyName",
            "property": "familyName",
            "title": "Internships.StudentFullName",
            "formatter": "TemplateFormatter",
            "formatString": "${familyName} ${givenName}"
        },
        {
            "name": "internshipYear/alternateName",
            "property": "yearAlternateName",
            "title": "Internships.YearAlternateName"
        },
        {
            "name": "internshipPeriod/alternateName",
            "property": "internshipPeriodAlternateName",
            "title": "Internships.InternshipPeriodAlternateName",
            "formatter": "TranslationFormatter",
            "formatString": "Periods.${value}"
        },
        {
            "name": "startDate",
            "property": "startDate",
            "title": "Internships.StartDate",
            "formatter": "DateTimeFormatter",
            "formatString": "shortDate"
        },
        {
            "name": "dateCompleted",
            "property": "dateCompleted",
            "title": "Internships.DateCompleted",
            "formatter": "DateTimeFormatter",
            "formatString": "shortDate"
        },
        {
            "name": "department/abbreviation",
            "property": "departmentAbbreviation",
            "title": "Internships.Department"
        },
        {
            "name": "companyContact",
            "title": "Internships.CompanyContact"
        }
    ],
    "defaults":{
      "filter": "(department eq ${currentDepartment} and status/alternateName eq 'active' and student/studentStatus/alternateName eq 'active')"
    },
    "criteria": [
      {
        "name": "subjectName",
        "title": "Internships.Subject",
        "filter": "(indexof(name, '${value}') ge 0)",
        "type": "text"
      },
      {
        "name": "studentName",
        "title": "Internships.Status",
        "filter": "( indexof(student/person/familyName, '${value}') ge 0 or indexof(student/person/givenName, '${value}') ge 0 )",
        "type": "text"
      },
      {
        "name": "internshipStatus",
        "title": "Internships.Status",
        "filter": "(status/alternateName eq '${value}')",
        "type": "text"
      },
      {
        "name": "academicYear",
        "title": "Internships.AcademicYear",
        "filter": "(internshipYear/id eq '${value}')",
        "type": "text"
      },
      {
        "name": "academicPeriod",
        "title": "Internships.AcademicPeriod",
        "filter": "(internshipPeriod/alternateName eq '${value}')",
        "type": "text"
      },
      {
        "name": "startDate",
        "title": "Internships.StartDate",
        "filter": "(startDate eq '${value}')",
        "type": "text"
      },
      {
        "name": "studentStatus",
        "filter": "(student/studentStatus eq ${value})",
        "type": "hidden"
      }
    ],
    "searches": [
        {
          "name": "Πρακτικές σε εξέλιξη",
          "filter": {
              "internshipStatus": "active"
          }
        },
        {
          "name": "Ολοκληρώθηκε (Ενεργοί Φοιτητές)",
          "filter": {
              "studentStatus": 1,
              "internshipStatus": "completed"
          }
        },
        {
          "name": "Σε εξέλιξη  (Ενεργοί Φοιτητές)",
          "filter": {
              "studentStatus": 1,
              "internshipStatus": "active"
          }
        }
    ],
    "paths" : []
}
