{
    "$schema": "https://universis.gitlab.io/ngx-tables/schemas/v1/schema.json",
    "model": "StudyProgramSpecialties",
    "searchExpression":"(indexof(name, '${text}') ge 0 or indexof(studyProgram/name, '${text}') ge 0 or indexof(studyProgram/department/name, '${text}') ge 0)",
    "multipleSelect": true,
    "selectable": true,
    "columns": [
        {
            "name": "id",
            "property": "id",
            "title": "Settings.Attributes.id",
            "hidden": true
        },
        {
            "name": "name",
            "title": "Settings.Attributes.specialization",
            "hidden": false
        },
        {
            "name": "abbreviation",
            "title": "Settings.Attributes.abbreviation",
            "hidden": true
        },
        {
            "name": "studyProgram/name",
            "property": "studyProgramName",
            "title": "Settings.Attributes.studyProgramName",
            "hidden": false
        },
        {
            "name": "studyProgram/department/name",
            "property": "departmentName",
            "title": "Settings.Attributes.departmentName",
            "hidden": false
        },
        {
            "name": "studyProgram/department/id",
            "property": "departmentID",
            "title": "Settings.Attributes.department",
            "hidden": true
        },
        {
            "name": "degreeTemplate/title",
            "property": "degreeTemplateTitle",
            "title": "Settings.Attributes.degreeTemplateTitle",
            "hidden": false
        }
    ],
    "defaults": {
        "filter": "studyProgram/department eq ${currentDepartment}",
        "orderBy": "studyProgram/name,specialty"
    },
    "criteria": [
        {
            "name": "name",
            "filter": "(indexof(name, '${value}') ge 0)",
             "type": "text"
        },
        {
            "name": "departmentName",
            "filter": "(studyProgram/department/name eq '${value}')",
             "type": "text"
        },
        {
            "name": "departmenID",
            "filter": "(studyProgram/department eq '${value}')",
             "type": "text"
        },
        {
            "name": "studyProgram",
            "filter": "(studyProgram eq ${value})",
             "type": "text"
        },
        {
            "name": "hasDegreeTemplate",
            "filter": "(degreeTemplate/id ${value === 1 ? 'ne' : 'eq'} null)",
             "type": "text"
        },
        {
            "name": "degreeTemplateTitle",
            "filter": "(indexof(degreeTemplate/title, '${value}') ge 0)",
             "type": "text"
        }
    ]
}