{
  "model": "LocalDepartments",
  "settings": {
    "i18n": {
      "el": {
        "Other properties": "Άλλες ιδιότητες",
        "Exam period participation settings": "Ρυθμίσεις αιτήσεων συμμετοχής σε εξετάσεις",
        "Set the current year for exam participation applications": "Ορίστε το ακαδημαϊκό έτος για την αποδοχή αιτήσεων συμμετοχής σε εξετάσεις",
        "Set the current period for exam participation applications": "Ορίστε την εξεταστική περίοδο για την αποδοχή αιτήσεων συμμετοχής σε εξετάσεις",
        "Valid from": "Έναρξη περιόδου αιτήσεων",
        "Set the start date of accepting applications for exam participations": "Ορίστε την ημερομηνία έναρξης αποδοχής των αιτήσεων",
        "Valid to": "Λήξη περιόδου αιτήσεων",
        "Set the end date of the period that department will accept applications for exam participations": "Ορίστε την ημερομηνία λήξης της περιόδου αποδοχής των αιτήσεων",
        "Exam year": "Ακαδημαϊκό έτος εξεταστικής περιόδου",
        "Exam period": "Εξεταστική περιόδος",
        "Alternative code": "Εναλλακτικός κωδικός",
        "Abbreviation": "Συντομογραφία",
        "Set the department's full name.": "Ορίστε το όνομα του τμήματος.",
        "Set the name of the faculty this department belongs to.": "Ορίστε το όνομα της σχολής στην οποία ανήκει το τμήμα αυτό.",
        "This is the abbreviation of the department's name. It should contain up to 20 characters": "Αυτή είναι η συντομογραφία του ονόματος του τμήματος. Πρέπει να περιέχει έως 20 χαρακτήρες.",
        "Set the number of the total semesters in this department. The value cannot be greater than 14.": "Ορίστε τον αριθμό των συνολικών εξαμήνων του τμήματος. Η τιμή δεν μπορεί να ξεπερνάει το 14.",
        "Select the study level this department offers.": "Ορίστε το επίπεδο σπουδών που προσφέρει το τμήμα.",
        "Set the full name of the contact person of this department.": "Ορίστε το ονοματεπώνυμο του υπεύθυνου επικοινωνίας του τμήματος αυτού.",
        "If there is an alternative contact person in this department, set the name here. If not, leave this blank. It is an optional field.": "Εάν υπάρχει εναλλακτικός υπεύθυνος επικοινωνίας τμήματος, ορίστε το ονοματεπώνυμο του εδώ. Εάν όχι, αφήστε το κενό. ΤΟ πεδίο είναι προαιρετικό.",
        "Set the phone number of this department. Note that it must contain the country code": "Ορίστε το σταθερό τηλέφωνο του τμήματος αυτού. Πρέπει να περιέχει τον κωδικό χώρας.",
        "If there is an alternate phone number in this department, input it here. Note that it must contain the country code": "Εάν υπάρχει εναλλακτικό σταθερό τμήματος, πληκτρολογήστε το εδώ. Σημειώστε ότι πρέπει να περιέχειτον κωδικό χώρας.",
        "This should have a valid email format eg. user@example.com": "Πρέπει να έχει μια έγκυρη μορφή ηλεκτρονικού ταχυδρομείου π.χ. user@example.com",
        "If checked, students may be able to submit course registrations.": "Εάν επιλεχθεί, οι φοιτητές θα μπορούν να υποβάλουν δηλώσεις μαθημάτων.",
        "If checked, students will be able to make changes to their already submitted registrations in case of an open registration period.": "Εάν επιλεχθεί, οι φοιτητές θα μπορούν να επεξεργαστούν την ήδη υποβεβλημμένη δήλωση μαθημάτων σε περίπτωση που είναι ανοιχτή η περίοδος δηλώσεων.",
        "Set the full date the course registration period starts. Note that course registrations will begin on the day you selected at 09:00 am.": "Ορίστε την πλήρη ημερομηνία έναρξης των δηλώσεων μαθημάτων. Σημειώστε ότι οι δηλώσεις θα ξεκινήσουν στις 09:00πμ την ημέρα που θα επιλέξετε",
        "Set the full date the course registration period ends.": "Ορίστε την πλήρη καταληκτική ημερομηνία δηλώσεων μαθημάτων",
        "Add some notes for the course registration. They should be registration guidelines for the students to read, or anything you want to clarify on the registration period or process": "Προσθέστε μερικές σημειώσεις για τις δηλώσεις μαθήματων. Πρέπει να περιέχει οδηγίες για να διαβάσουν οι φοιτητές ή οτιδήποτε θέλετε να διευκρυνίσετε για την περίοδο δηλώσεων μαθημάτων ή την διαδικασία."
      }
    }
  },
  "components": [
    {
      "label": "Tabs",
      "type": "tabs",
      "key": "tabs1",
      "path": "tabs1",
      "input": false,
      "components": [

        {
          "label": "General Information",
          "components": [
            {

              "legend": "General Information",
              "key": "fieldSet",
              "type": "fieldset",
              "input": false,
              "label": "General Information",

              "components": [
                {
                  "columns": [
                    {
                      "components": [
                        {
                          "label": "Department Name",
                          "labelPosition": "top",
                          "widget": {
                            "type": "input"
                          },
                          "validate": {
                            "required": true
                          },
                          "key": "name",
                          "type": "textfield",
                          "input": true,
                          "description": "Set the department's full name."
                        }
                      ],
                      "width": 6
                    },
                    {
                      "components": [
                        {
                          "label": "Faculty Name",
                          "labelPosition": "top",
                          "widget": "choicesjs",
                          "dataSrc": "url",
                          "searchFields": [
                            "id"
                          ],
                          "selectThreshold": 0.3,
                          "selectValues": "value",
                          "key": "facultyName",
                          "type": "textfield",
                          "input": true,
                          "description": "Set the name of the faculty this department belongs to."
                        }
                      ],
                      "width": 6
                    }
                  ],
                  "customClass": "text-dark",
                  "hideLabel": true,
                  "type": "columns",
                  "input": false
                },
                {
                  "columns": [
                    {
                      "components": [
                        {
                          "label": "Abbreviation",
                          "labelPosition": "top",
                          "widget": {
                            "type": "input"
                          },
                          "validate": {
                            "required": true
                          },
                          "key": "abbreviation",
                          "type": "textfield",
                          "input": true,
                          "description": "This is the abbreviation of the department's name. It should contain up to 20 characters"
                        }
                      ],
                      "width": 3
                    },
                    {
                      "components": [
                        {
                          "label": "Alternative code",
                          "labelPosition": "top",
                          "widget": {
                            "type": "input"
                          },
                          "validate": {
                            "required": true
                          },
                          "key": "alternativeCode",
                          "type": "textfield",
                          "input": true
                        }
                      ],
                      "width": 3
                    },
                    {
                      "components": [
                        {
                          "label": "Semesters",
                          "labelPosition": "top",
                          "widget": {
                            "type": "input"
                          },
                          "validate": {
                            "required": true,
                            "integer": true,
                            "min": 1,
                            "max": 14
                          },
                          "key": "totalSemesters",
                          "type": "number",
                          "input": true,
                          "description": "Set the number of the total semesters in this department. The value cannot be greater than 14."
                        }
                      ],
                      "width": 3
                    },
                    {
                      "components": [
                        {
                          "label": "Study Level",
                          "labelPosition": "top",
                          "widget": "choicesjs",
                          "validate": {
                            "required": true
                          },

                          "dataSrc": "url",
                          "data": {
                            "url": "StudyLevels",
                            "headers": []
                          },
                          "template": "<span class='d-block pr-5 text-truncate'>{{ item.name }}</span>",
                          "selectValues": "value",
                          "key": "studyLevel.alternateName",
                          "valueProperty": "alternateName",
                          "lazyLoad": false,
                          "type": "select",
                          "input": true,
                          "description": "Select the study level this department offers."
                        }
                      ],
                      "width": 3
                    }
                  ],
                  "customClass": "text-dark",
                  "type": "columns",
                  "input": false
                }
              ]
            },
            {
              "legend": "Contact Details",
              "key": "fieldSet",
              "type": "fieldset",
              "input": false,
              "label": "Contact Details",
              "components": [
                {
                  "columns": [
                    {
                      "components": [
                        {
                          "label": "Contact Person",
                          "labelPosition": "top",
                          "widget": {
                            "type": "input"
                          },
                          "validate": {
                            "required": true
                          },
                          "key": "contactPerson1",
                          "type": "textfield",
                          "input": true,
                          "description": "Set the full name of the contact person of this department."
                        }
                      ],
                      "width": 3
                    },
                    {
                      "components": [
                        {
                          "label": "Alternative Contact Person",
                          "labelPosition": "top",
                          "widget": {
                            "type": "input"
                          },
                          "validate": {
                            "required": false
                          },
                          "key": "contactPerson2",
                          "type": "textfield",
                          "input": true,
                          "description": "If there is an alternative contact person in this department, set the name here. If not, leave this blank. It is an optional field."
                        }
                      ],
                      "width": 3
                    },
                    {
                      "components": [
                        {
                          "label": "Phone Number",
                          "labelPosition": "top",
                          "spellcheck": true,
                          "inputMask": "+999999999999",
                          "widget": {
                            "type": "input"
                          },
                          "validate": {
                            "required": true
                          },
                          "key": "phone1",
                          "type": "phoneNumber",
                          "input": true,
                          "description": "Set the phone number of this department. Note that it must contain the country code"
                        }
                      ],
                      "width": 3
                    },
                    {
                      "components": [
                        {
                          "label": "Alternative Phone Number",
                          "labelPosition": "top",
                          "spellcheck": true,
                          "inputMask": "+999999999999",
                          "widget": {
                            "type": "input"
                          },
                          "validate": {
                            "required": false
                          },
                          "key": "phone2",
                          "type": "textfield",
                          "input": true,
                          "description": "If there is an alternate phone number in this department, input it here. Note that it must contain the country code"
                        }
                      ],
                      "width": 3
                    }
                  ],
                  "customClass": "text-dark",
                  "hideLabel": true,
                  "type": "columns",
                  "input": false
                },
                {
                  "columns": [
                    {
                      "components": [
                        {
                          "label": "Email",
                          "labelPosition": "top",
                          "spellcheck": true,
                          "widget": {
                            "type": "input"
                          },
                          "validate": {
                            "required": true
                          },
                          "key": "email",
                          "type": "email",
                          "input": true,
                          "description": "This should have a valid email format eg. user@example.com"
                        }
                      ],
                      "width": 3
                    }
                  ],
                  "customClass": "text-dark",
                  "type": "columns",
                  "input": false
                }
              ]
            }
          ]

        },

        {
          "label": "Registration Information",
          "components": [
            {
              "label": "Columns",
              "customClass": "pb-4",
              "columns": [
                {
                  "components": [
                    {
                      "label": "Active Registration Period",
                      "labelPosition": "top",
                      "validate": {
                        "required": false
                      },
                      "key": "isRegistrationPeriod",
                      "type": "checkbox",
                      "input": true,
                      "description": "If checked, students may be able to submit course registrations."
                    }
                  ],
                  "width": 4
                },
                {
                  "components": [
                    {
                      "label": "Allow Registration Change",
                      "labelPosition": "top",
                      "validate": {
                        "required": false
                      },
                      "key": "allowRegistrationChange",
                      "type": "checkbox",
                      "input": true,
                      "description": "If checked, students will be able to make changes to their already submitted registrations in case of an open registration period."
                    }
                  ],
                  "width": 4
                }
              ],
              "key": "columns",
              "type": "columns",
              "input": false
            },
            {
              "label": "Columns",
              "columns": [
                {
                  "components": [
                    {
                      "label": "Registration Period Start",
                      "labelPosition": "top",
                      "format": "yyyy-MM-dd",
                      "enableTime": false,
                      "suffix": "",
                      "widget": {
                        "type": "calendar",
                        "format": "yyyy-MM-dd"
                      },
                      "validate": {
                        "required": false
                      },
                      "key": "registrationPeriodStart",
                      "type": "datetime",
                      "input": true,
                      "description": "Set the full date the course registration period starts. Note that course registrations will begin on the day you selected at 09:00 am."
                    }
                  ],
                  "width": 4
                },
                {
                  "components": [
                    {
                      "label": "Registration Period End",
                      "labelPosition": "top",
                      "format": "yyyy-MM-dd",
                      "enableTime": false,
                      "suffix": "",
                      "widget": {
                        "type": "calendar",
                        "format": "yyyy-MM-dd"
                      },
                      "validate": {
                        "required": false
                      },
                      "key": "registrationPeriodEnd",
                      "type": "datetime",
                      "input": true,
                      "description": "Set the full date the course registration period ends."
                    }
                  ],
                  "width": 4
                }
              ],
              "key": "columns",
              "type": "columns",
              "input": false
            },
            {
              "label": "Registration Period Notes",
              "autoExpand": false,
              "spellcheck": true,
              "tableView": true,
              "validate": {
                "unique": false,
                "multiple": false
              },
              "key": "registrationPeriodNotes",
              "type": "textarea",
              "wysiwyg": true,
              "rows": 25,
              "input": true,
              "description": "Add some notes for the course registration. They should be registration guidelines for the students to read, or anything you want to clarify on the registration period or process"
            }
          ]
        }
      ]


    },
    {
      "type": "button",
      "label": "Submit",
      "key": "submit",
      "disableOnInvalid": true,
      "input": true
    }

  ]
}
