{
    "model": "InstituteDocumentNumberSeries",
    "title": "InstituteDocumentNumberSeries",
    "searchExpression":"indexof(name, '${text}') ge 0 or indexof(description, '${text}') ge 0",
    "columns": [
      {
        "name": "name",
        "title": "Documents.Name"
      },
      {
        "name": "description",
        "title": "Documents.Description"
      },
      {
        "name": "active",
        "title": "Documents.ActiveSeries",
        "formatter": "TrueFalseFormatter"
      },
      {
        "name": "dateCreated",
        "title": "Documents.CreatedAt",
        "formatter": "DateTimeFormatter",
        "formatString": "short"
      },
      {
        "name": "dateModified",
        "title": "Documents.ModifiedAt",
        "formatter": "DateTimeFormatter",
        "formatString": "short"
      },
      {
        "name": "id",
        "formatter": "ButtonFormatter",
        "formatString":"(modal:edit)",
        "className": "text-center",
        "formatOptions": {
            "buttonContent": "<i class=\"far fa-edit text-indigo\"></i>",
            "buttonClass": "btn btn-default"
        }
      }

    ],
    "defaults": {
      "orderBy": "dateModified desc,dateCreated desc"
    }
  }

