{
  "model": "Students",
  "settings": {
    "i18n": {
      "el": {
        "SSN": "ΑΜΚΑ",
        "Edit the student's given name": "Ορίστε το όνομα του φοιτητή",
        "Edit the student's family name": "Ορίστε το επώνυμο του φοιτητή",
        "Edit the given name of the student's father": "Ορίστε το πατρώνυμο του φοιτητή",
        "Edit the given name of the student's mother": "Ορίστε το μητρώνυμο του φοιτητή",
        "To change the student status, make sure there is a student request. If there is, accept it and the status will be changed automatically.": "Για να αλλάξετε την κατάσταση του φοιτητή, σιγουρευτείτε ότι υπάρχει αίτηση από τον φοιτητή. Εάν υπάρχει, αποδεχτείτε την και η κατάσταση θα αλλάξει αυτόματα.",
        "Select the academic year the student was enrolled.": "Επιλέξτε το ακαδημαϊκό έτος εγγραφής",
        "Select the academic period the student was enrolled.": "Επιλέξτε την ακαδημαϊκή περίοδο εγγραφής",
        "Select the semester the student was enrolled.": "Επιλέξτε το εξάμηνο εγγραφής του φοιτητή.",
        "Select the full date the student was enrolled.": "Επιλέξτε την πλήρη ημερομηνία εγγραφής του φοιτητή",
        "Edit the descending index the student got inscribed. This field can only contain numeric values": "Ορίστε τον φθίνον αριθμό εισαγωγής του φοιτητή. Το πεδίο μπορεί να περιέχει μόνο αριθμητικές τιμές.",
        "This is the number of credits the student gathered. This field can only contain numeric values": "Είναι ο αριθμός των μορίων που συγκέντρωσε ο φοιτητής κατά την διαδικασία εισαγωγής του. Το πεδίο αυτό μπορεί να περιέχει μόνο αριθμητικές τιμές.",
        "This is the semester in which the student is this academic period. It is auto-updated.": "Αυτό είναι το εξάμηνο στο οποίο βρίσκεται ο φοιτητής την τρέχουσα ακαδημαϊκή περίοδο. Το πεδίο αυτό ενημερώνεται αυτόματα.",
        "This is the department the student belongs to. It cannot be changed.": "Αυτό είναι το τμήμα στο οποίο ανήκει. Το πεδίο αυτό δεν μπορεί να αλλάξει.",
        "Select the study program the student is admitted to. This may change the courses the student has to take, their coefficient and the degree title.": "Επιλέξτε το πρόγραμμα σπουδών στο οποίο φοιτά ο φοιτητής. Αλλάζοντας το πεδίο αυτό, πιθανώς να αλλάξουν τα μαθήματα που πρέπει να παρακολουθήσει, οι συντελεστές τους καθώς και ο τίτλος του πτυχίου.",
        "Select the specialty of the student. You can only select specialties defined in the study program the student is admitted to.": "Επιλέξτε την κατεύθυνση του φοιτητή. Μπορείτε να επιλέξετε μόνο κατευθύνσεις που έχουν οριστεί στο πρόγραμμα σπουδών που φοιτά ο φοιτητής.",
        "This is the title of the students' degree.": "Αυτός είναι ο τίτλος του πτυχίου του φοιτητή.",
        "Input the student's home phone number. It must contain the country code with \"+\" prefix.": "Πληκτρολογήστε το σταθερό τηλέφωνο του φοιτητή. Πρέπει να περιέχει και τον κωδικό χώρας με πρόθεμα \"+\".",
        "Input the student's mobile phone number. It must contain the country code with \"+\" prefix.": "Πληκτρολογήστε το κινητό τηλέφωνο του φοιτητή. Πρέπει να περιέχει και τον κωδικό χώρας με πρόθεμα \"+\".",
        "This should have a valid email format eg. user@example.com": "Πρέπει να έχει μια έγκυρη μορφή ηλεκτρονικού ταχυδρομείου π.χ. user@example.com",
        "Input the student's temporary home phone number. It must contain the country code with \"+\" prefix.": "Πληκτρολογήστε το σταθερό τηλέφωνο προσωρινής κατοικίας του φοιτητή. Πρέπει να περιέχει και τον κωδικό χώρας με πρόθεμα \"+\".",
        "Alternate Email": "Εναλλακτικό email",
        "Retrospective Inscription Year": "Αναδρομικό έτος εισαγωγής",
        "Retrospective Inscription Period": "Αναδρομική περίοδος εισαγωγής",
        "This is the retrospective inscription year. It is computed automatically and cannot be edited.": "Είναι το αναδρομικό έτος εγγραφής. Υπολογίζεται αυτόματα και δεν μπορεί να επεξεργασθεί",
        "This is the retrospective inscription period. It is computed automatically and cannot be edited.": "Είναι η αναδρομική περίοδος εγγραφής. Υπολογίζεται αυτόματα και δεν μπορεί να επεξεργασθεί",
        "Insurance Provider" : "Φορέας Ασφάλισης",
        "Insurance Number": "Αριθμός Μητρώου Ασφάλισης",
        "Father's Name In Genitive": "Όνομα Πατρός στη γενική",
        "Mother's Name In Genitive": "Όνομα Μητρός στη γενική",
        "Unique Identifier": "ΑΠΜ",
        "Student Institute Identifier": "ΑΓΜ",
        "Phone number must contain the country code and a total of 10 to 15 digits": "Ο αριθμός πρέπει να περιέχει τον κωδικό χώρας και συνολικά από 10 μέχρι 15 ψηφία.",
        "SSN country of issue": "Χώρα έκδοσης ΑΜΚΑ"
      }
    }
  },
  "components": [
    {
      "label": "Tabs",
      "type": "tabs",
      "key": "tabs1",
      "path": "tabs1",
      "legend": "New student",
      "input": false,
      "components": [
        {
          "label": "Student Information",
          "components": [
            {
              "legend": "Student Information",
              "key": "fieldset",
              "type": "fieldset",
              "input": false,
              "components": [
                {
                  "columns": [
                    {
                      "components": [
                        {
                          "label": "Student Number",
                          "labelPosition": "top",
                          "widget": "choicesjs",
                          "type": "number",
                          "input": true,
                          "key": "studentIdentifier",
                          "validate": {
                            "required": false
                          },
                          "disabled": true
                        }
                      ],
                      "width": 3,
                      "offset": 0,
                      "push": 0,
                      "pull": 0
                    },
                    {
                      "components": [
                        {
                          "label": "Given Name",
                          "key": "person.givenName",
                          "labelPosition": "top",
                          "widget": {
                            "type": "input"
                          },
                          "validate": {
                            "required": true
                          },
                          "type": "textfield",
                          "input": true,
                          "description": "Edit the student's given name"
                        }
                      ],
                      "width": 3,
                      "offset": 0,
                      "push": 0,
                      "pull": 0
                    },
                    {
                      "components": [
                        {
                          "label": "Family Name",
                          "labelPosition": "top",
                          "widget": "choicesjs",
                          "selectValues": "value",
                          "type": "textfield",
                          "key": "person.familyName",
                          "input": true,
                          "validate": {
                            "required": true
                          },
                          "description": "Edit the student's family name"
                        }
                      ],
                      "width": 3,
                      "offset": 0,
                      "push": 0,
                      "pull": 0
                    },
                    {
                      "components": [
                        {
                          "label": "Father's Name",
                          "labelPosition": "top",
                          "widget": "choicesjs",
                          "selectValues": "value",
                          "type": "textfield",
                          "input": true,
                          "key": "person.fatherName",
                          "validate": {
                            "required": false
                          },
                          "description": "Edit the given name of the student's father"
                        }
                      ],
                      "width": 3,
                      "offset": 0,
                      "push": 0,
                      "pull": 0
                    },
                    {
                      "components": [
                        {
                          "label": "Mother's Name",
                          "labelPosition": "top",
                          "key": "person.motherName",
                          "widget": {
                            "type": "input"
                          },
                          "type": "textfield",
                          "input": true,
                          "validate": {
                            "required": false
                          },
                          "description": "Edit the given name of the student's mother"
                        }
                      ],
                      "width": 3,
                      "offset": 0,
                      "push": 0,
                      "pull": 0
                    },
                    {
                      "components": [
                        {
                          "label": "Father's Name In Genitive",
                          "labelPosition": "top",
                          "key": "person.fatherNameGenitive",
                          "widget": {
                            "type": "input"
                          },
                          "type": "textfield",
                          "input": true,
                          "validate": {
                            "required": false
                          },
                          "allowCalculateOverride": true,
                          "calculateValue": "const grammar = form && form.universis && form.universis.grammar; if (grammar) {value = grammar.GenitiveFormatter.format(data.person && data.person.fatherName, 'el', {gender: grammar.GenderEnum.Male})}"
                        }
                      ],
                      "width": 3,
                      "offset": 0,
                      "push": 0,
                      "pull": 0
                    },
                    {
                      "components": [
                        {
                          "label": "Mother's Name In Genitive",
                          "labelPosition": "top",
                          "key": "person.motherNameGenitive",
                          "widget": {
                            "type": "input"
                          },
                          "type": "textfield",
                          "input": true,
                          "validate": {
                            "required": false
                          },
                          "allowCalculateOverride": true,
                          "calculateValue": "const grammar = form && form.universis && form.universis.grammar; if (grammar) {value = grammar.GenitiveFormatter.format(data.person && data.person.motherName, 'el', {gender: grammar.GenderEnum.Female})}"
                        }
                      ],
                      "width": 3,
                      "offset": 0,
                      "push": 0,
                      "pull": 0
                    },
                    {
                      "components": [
                        {
                          "label": "Gender",
                          "labelPosition": "top",
                          "dataSrc": "url",
                          "data": {
                            "url": "Genders?$filter=identifier ne null",
                            "headers": []
                          },
                          "template": "{{ item.name }}",
                          "key": "person.gender",
                          "type": "select",
                          "input": true,
                          "selectValues": "value",
                          "valueProperty": "identifier",
                          "widget": "choicesjs",
                          "searchEnabled": false,
                          "validate": {
                            "required": true
                          },
                          "lazyLoad": false
                        }
                      ],
                      "width": 3,
                      "offset": 0,
                      "push": 0,
                      "pull": 0
                    },
                    {
                      "components": [
                        {
                          "label": "Nationality",
                          "labelPosition": "top",
                          "dataSrc": "url",
                          "data": {
                            "url": "Nationalities?$top={{limit}}&$skip={{skip}}",
                            "headers": []
                          },
                          "limit": 200,
                          "template": "{{ item.name }}",
                          "key": "person.nationality",
                          "type": "select",
                          "input": true,
                          "selectValues": "value",
                          "valueProperty": "id",
                          "widget": "choicesjs",
                          "searchEnabled": false,
                          "validate": {
                            "required": false
                          },
                          "lazyLoad": false
                        }
                      ],
                      "width": 3,
                      "offset": 0,
                      "push": 0,
                      "pull": 0
                    },
                    {
                      "components": [
                        {
                          "label": "Status",
                          "labelPosition": "top",
                          "widget": "choicesjs",
                          "dataSrc": "url",
                          "data": {
                            "url": "StudentStatuses?$orderby=name",
                            "headers": []
                          },
                          "template": "{{ item.name }}",
                          "selectValues": "value",
                          "key": "studentStatus",
                          "validate": {
                            "required": true
                          },
                          "searchEnabled": false,
                          "type": "select",
                          "input": true,
                          "disabled": true,
                          "lazyLoad": false,
                          "description": "To change the student status, make sure there is a student request. If there is, accept it and the status will be changed automatically."
                        }
                      ],
                      "width": 3,
                      "offset": 0,
                      "push": 0,
                      "pull": 0
                    },
                    {
                      "components": [
                        {
                          "label": "Student Institute Identifier",
                          "labelPosition": "top",
                          "key":"studentInstituteIdentifier",
                          "widget": {
                            "type": "input"
                          },
                          "validate": {
                            "required": false
                          },
                          "type": "textfield",
                          "input": true,
                          "conditional": {
                            "show": "false",
                            "when": "studentInstituteIdentifier",
                            "eq": ""
                          }
                        }
                      ],
                      "width": 3,
                      "offset": 0,
                      "push": 0,
                      "pull": 0
                    },
                    {
                      "components": [
                        {
                          "label": "Unique Identifier",
                          "labelPosition": "top",
                          "widget": "choicesjs",
                          "type": "number",
                          "input": true,
                          "key": "uniqueIdentifier",
                          "validate": {
                            "required": false
                          },
                          "disabled": true,
                          "conditional": {
                            "show": "false",
                            "when": "uniqueIdentifier",
                            "eq": ""
                          }
                        }
                      ],
                      "width": 3,
                      "offset": 0,
                      "push": 0,
                      "pull": 0
                    }
                  ],
                  "customClass": "text-dark",
                  "hideLabel": true,
                  "type": "columns",
                  "input": false
                }
              ]
            },
            {
              "legend": "Inscription Information",
              "key": "fieldset",
              "type": "fieldset",
              "input": false,
              "components": [
                {
                  "columns": [
                    {
                      "components": [
                        {
                          "label": "Inscription Year",
                          "labelPosition": "top",
                          "key": "inscriptionYear",
                          "dataType": "object",
                          "dataPath": "id",
                          "validate": {
                            "required": true
                          },
                          "type": "select",
                          "searchEnabled": false,
                          "dataSrc": "url",
                          "data": {
                            "url": "AcademicYears/?$select=id,name,alternateName&$top={{limit}}&$skip={{skip}}&$orderby=id desc",
                            "headers": []
                          },
                          "limit": 20,
                          "template": "{{ item.alternateName }}",
                          "input": true,
                          "lazyLoad": true,
                          "selectValues": "value",
                          "widget": "choicesjs",
                          "description": "Select the academic year the student was enrolled."
                        }
                      ],
                      "width": 3,
                      "offset": 0,
                      "push": 0,
                      "pull": 0
                    },
                    {
                      "components": [
                        {
                          "label": "Inscription Period",
                          "labelPosition": "top",
                          "widget": "choicesjs",
                          "dataSrc": "url",
                          "data": {
                            "url": "AcademicPeriods/?$select=id,name",
                            "headers": []
                          },
                          "template": "{{ item.name }}",
                          "selectValues": "value",
                          "key": "inscriptionPeriod",
                          "dataType": "object",
                          "dataPath": "id",
                          "validate": {
                            "required": true
                          },
                          "type": "select",
                          "input": true,
                          "searchEnabled": false,
                          "description": "Select the academic period the student was enrolled."
                        }
                      ],
                      "width": 3,
                      "offset": 0,
                      "push": 0,
                      "pull": 0
                    },
                    {
                      "components": [
                        {
                          "label": "Inscription semester",
                          "labelPosition": "top",
                          "widget": "choicesjs",
                          "dataSrc": "url",
                          "data": {
                            "url": "Semesters",
                            "headers": []
                          },
                          "template": "{{ item.name }}",
                          "selectValues": "value",
                          "key": "inscriptionSemester",
                          "validate": {
                            "required": true
                          },
                          "type": "select",
                          "input": true,
                          "lazyLoad": false,
                          "searchEnabled": false,
                          "description": "Select the semester the student was enrolled."
                        }
                      ],
                      "width": 3,
                      "offset": 0,
                      "push": 0,
                      "pull": 0
                    },
                    {
                      "components": [
                        {
                          "label": "Inscription date",
                          "labelPosition": "top",
                          "enableTime": false,
                          "customOptions": {
                            "dateFormat": "yyyy-MM-dd",
                            "allowInput": true
                          },
                          "widget": {
                            "type": "calendar"
                          },
                          "key": "inscriptionDate",
                          "validate": {
                            "required": true
                          },
                          "type": "datetime",
                          "format": "dd/MM/yyyy",
                          "input": true,
                          "description": "Select the full date the student was enrolled."
                        }
                      ],
                      "width": 3,
                      "offset": 0,
                      "push": 0,
                      "pull": 0
                    },
                    {
                      "components": [
                        {
                          "label": "Inscription mode",
                          "widget": "choicesjs",
                          "dataSrc": "url",
                          "labelPosition": "top",
                          "searchEnabled": true,
                          "data": {
                            "values": [],
                            "url": "/InscriptionModes?$orderby=name&$top={{limit}}&$skip={{skip}}",
                            "headers": []
                          },
                          "lazyLoad": false,
                          "limit": 50,
                          "template": "{{ item.name }}",
                          "selectThreshold": 0.3,
                          "key": "inscriptionMode",
                          "idPath": "id",
                          "dataType": "object",
                          "validate": {
                            "required": true
                          },
                          "type": "select",
                          "selectValues": "value",
                          "input": true,
                          "disabled": false
                        }
                      ],
                      "width": 6,
                      "offset": 0,
                      "push": 0,
                      "pull": 0
                    },
                    {
                      "components": [
                        {
                          "label": "Inscription Mode Category",
                          "widget": "choicesjs",
                          "dataSrc": "url",
                          "defaultValue": "",
                          "labelPosition": "top",
                          "searchEnabled": true,
                          "data": {
                            "values": [],
                            "url": "/InscriptionModeCategories?$top={{limit}}&$skip={{skip}}&$orderby=name",
                            "headers": []
                          },
                          "idPath": "id",
                          "limit": 50,
                          "dataType": "object",
                          "lazyLoad": false,
                          "template": "{{ item.name }}",
                          "selectThreshold": 0.3,
                          "key": "inscriptionModeCategory",
                          "validate": {
                            "required": false
                          },
                          "type": "select",
                          "selectValues": "value",
                          "input": true,
                          "disabled": false
                        }
                      ],
                      "width": 6,
                      "offset": 0,
                      "push": 0,
                      "pull": 0
                    },
                    {
                      "components": [
                        {
                          "label": "Inscription index",
                          "labelPosition": "top",
                          "key": "inscriptionIndex",
                          "type": "number",
                          "input": true,
                          "selectValues": "value",
                          "widget": "choicesjs",
                          "validate": {
                            "required": false
                          },
                          "description": "Edit the descending index the student got inscribed. This field can only contain numeric values"
                        }
                      ],
                      "width": 3,
                      "offset": 0,
                      "push": 0,
                      "pull": 0
                    },
                    {
                      "components": [
                        {
                          "label": "Inscription decision",
                          "labelPosition": "top",
                          "widget": {
                            "type": "input"
                          },
                          "validate": {
                            "required": false
                          },
                          "type": "textfield",
                          "input": true,
                          "key": "inscriptionDecision"
                        }
                      ],
                      "width": 3,
                      "offset": 0,
                      "push": 0,
                      "pull": 0
                    },
                    {
                      "components": [
                        {
                          "label": "Inscription Number",
                          "labelPosition": "top",
                          "widget": {
                            "type": "input"
                          },
                          "validate": {
                            "required": false
                          },
                          "type": "number",
                          "input": true,
                          "key": "inscriptionNumber"
                        }
                      ],
                      "width": 3,
                      "offset": 0,
                      "push": 0,
                      "pull": 0
                    },
                    {
                      "components": [
                        {
                          "label": "Inscription points",
                          "labelPosition": "top",
                          "widget": {
                            "type": "input"
                          },
                          "validate": {
                            "required": false
                          },
                          "type": "number",
                          "input": true,
                          "key": "inscriptionPoints",
                          "description": "This is the number of credits the student gathered. This field can only contain numeric values"
                        }
                      ],
                      "width": 3,
                      "offset": 0,
                      "push": 0,
                      "pull": 0
                    },
                    {
                      "components": [
                        {
                          "label": "Inscription department",
                          "labelPosition": "top",
                          "key": "inscriptionDepartment",
                          "type": "textfield",
                          "input": true,
                          "selectValues": "value",
                          "widget": "choicesjs"
                        }
                      ],
                      "width": 3,
                      "offset": 0,
                      "push": 0,
                      "pull": 0
                    },
                    {
                      "components": [
                        {
                          "label": "Retrospective Inscription Year",
                          "labelPosition": "top",
                          "key": "inscriptionRetroYear",
                          "type": "select",
                          "searchEnabled": false,
                          "dataSrc": "url",
                          "data": {
                            "url": "AcademicYears?$top={{limit}}&$skip={{skip}}&$orderby=id desc",
                            "headers": []
                          },
                          "limit": 20,
                          "template": "{{ item.alternateName }}",
                          "input": true,
                          "lazyLoad": true,
                          "dataType": "object",
                          "selectValues": "value",
                          "widget": "choicesjs",
                          "disabled": true,
                          "validate": {
                            "required": false
                          },
                          "description": "This is the retrospective inscription year. It is computed automatically and cannot be edited."
                        }
                      ],
                      "width": 3,
                      "offset": 0,
                      "push": 0,
                      "pull": 0
                    },
                    {
                      "components": [
                        {
                          "label": "Retrospective Inscription Period",
                          "labelPosition": "top",
                          "widget": "choicesjs",
                          "dataSrc": "url",
                          "data": {
                            "url": "AcademicPeriods",
                            "headers": []
                          },
                          "template": "{{ item.name }}",
                          "selectValues": "value",
                          "dataType": "object",
                          "key": "inscriptionRetroPeriod",
                          "type": "select",
                          "input": true,
                          "disabled": true,
                          "searchEnabled": false,
                          "validate": {
                            "required": false
                          },
                          "description": "This is the retrospective inscription period. It is computed automatically and cannot be edited."
                        }
                      ],
                      "width": 3,
                      "offset": 0,
                      "push": 0,
                      "pull": 0
                    },
                    {
                      "components": [
                        {
                          "label": "Inscription Comments",
                          "labelPosition": "top",
                          "widget": "choicesjs",
                          "selectValues": "value",
                          "key": "inscriptionComments",
                          "type": "textarea",
                          "rows": 3,
                          "input": true,
                          "searchEnabled": false
                        }
                      ],
                      "width": 12,
                      "offset": 0,
                      "push": 0,
                      "pull": 0
                    }
                  ],
                  "customClass": "text-dark",
                  "hideLabel": true,
                  "type": "columns",
                  "input": false
                }
              ]
            },
            {
              "legend": "Rating Information",
              "key": "fieldSet",
              "type": "fieldset",
              "input": false,
              "label": "Rating Information",
              "components": [
                {
                  "columns": [
                    {
                      "components": [
                        {
                          "label": "Semester",
                          "labelPosition": "top",
                          "widget": {
                            "type": "input"
                          },
                          "key": "semester",
                          "type": "number",
                          "input": true,
                          "disabled": true,
                          "description": "This is the semester in which the student is this academic period. It is auto-updated."
                        }
                      ],
                      "width": 3,
                      "offset": 0,
                      "push": 0,
                      "pull": 0
                    },
                    {
                      "components": [
                        {
                          "label": "Department",
                          "labelPosition": "top",
                          "key": "department.name",
                          "type": "textfield",
                          "input": true,
                          "disabled": true,
                          "description": "This is the department the student belongs to. It cannot be changed."
                        }
                      ],
                      "width": 9,
                      "offset": 0,
                      "push": 0,
                      "pull": 0
                    },
                    {
                      "components": [
                        {
                          "label": "Study Program",
                          "labelPosition": "top",
                          "key": "studyProgram.name",
                          "type": "textfield",
                          "input": true,
                          "disabled": true
                        }
                      ],
                      "width": 6,
                      "offset": 0,
                      "push": 0,
                      "pull": 0
                    },
                    {
                      "components": [
                        {
                          "label": "Study Program Specialty",
                          "labelPosition": "top",
                          "key": "specialty",
                          "type": "textfield",
                          "input": true,
                          "disabled": true
                        }
                      ],
                      "width": 6,
                      "offset": 0,
                      "push": 0,
                      "pull": 0
                    },
                    {
                      "components": [
                        {
                          "label": "Graduation Title",
                          "labelPosition": "top",
                          "key": "graduationTitle",
                          "type": "textfield",
                          "input": true,
                          "searchEnabled": false,
                          "validate": {
                            "required": false
                          },
                          "description": "This is the title of the students' degree."
                        }
                      ],
                      "width": 12,
                      "offset": 0,
                      "push": 0,
                      "pull": 0
                    }
                  ],
                  "customClass": "text-dark",
                  "hideLabel": true,
                  "type": "columns",
                  "input": false
                }
              ]
            }
          ]
        },
        {
          "label": "Personal Information",
          "components": [
            {
              "legend": "Citizen Information",
              "key": "fieldSet",
              "type": "fieldset",
              "input": false,
              "label": "ID Information",
              "components": [
                {
                  "columns": [
                    {
                      "components": [
                        {
                          "label": "Identity Card",
                          "labelPosition": "top",
                          "key": "person.identityCard",
                          "widget": {
                            "type": "input"
                          },
                          "type": "textfield",
                          "input": true,
                          "validate": {
                            "required": false
                          }
                        }
                      ],
                      "width": 3,
                      "offset": 0,
                      "push": 0,
                      "pull": 0
                    },
                    {
                      "components": [
                        {
                          "label": "Identity Type",
                          "labelPosition": "top",
                          "dataSrc": "url",
                          "data": {
                            "url": "IdentityTypes?$filter=identifier ne null",
                            "headers": []
                          },
                          "template": "{{ item.name }}",
                          "key": "person.identityType",
                          "type": "select",
                          "input": true,
                          "selectValues": "value",
                          "valueProperty": "identifier",
                          "widget": "choicesjs",
                          "searchEnabled": false,
                          "validate": {
                            "required": false
                          },
                          "lazyLoad": false
                        }
                      ],
                      "width": 3,
                      "offset": 0,
                      "push": 0,
                      "pull": 0
                    },
                    {
                      "components": [
                        {
                          "label": "Identity Date",
                          "labelPosition": "top",
                          "key": "person.identityDate",
                          "enableTime": false,
                          "customOptions": {
                            "dateFormat": "yyyy-MM-dd",
                            "allowInput": true
                          },
                          "widget": {
                            "type": "calendar"
                          },
                          "type": "datetime",
                          "format": "dd/MM/yyyy",
                          "input": true,
                          "validate": {
                            "required": false
                          }
                        }
                      ],
                      "width": 3,
                      "offset": 0,
                      "push": 0,
                      "pull": 0
                    },
                    {
                      "components": [
                        {
                          "label": "Identity Authority",
                          "labelPosition": "top",
                          "key": "person.identityAuthority",
                          "widget": {
                            "type": "input"
                          },
                          "type": "textfield",
                          "input": true,
                          "validate": {
                            "required": false
                          }
                        }
                      ],
                      "width": 3,
                      "offset": 0,
                      "push": 0,
                      "pull": 0
                    },
                    {
                      "components": [
                        {
                          "label": "Citizen Registrar",
                          "labelPosition": "top",
                          "key": "person.citizenRegistrar",
                          "widget": {
                            "type": "input"
                          },
                          "type": "textfield",
                          "input": true,
                          "validate": {
                            "required": false
                          }
                        }
                      ],
                      "width": 4,
                      "offset": 0,
                      "push": 0,
                      "pull": 0
                    },
                    {
                      "components": [
                        {
                          "label": "Citizen Registrar Place",
                          "labelPosition": "top",
                          "key": "person.citizenRegistrarPlace",
                          "widget": {
                            "type": "input"
                          },
                          "type": "textfield",
                          "input": true,
                          "validate": {
                            "required": false
                          }
                        }
                      ],
                      "width": 4,
                      "offset": 0,
                      "push": 0,
                      "pull": 0
                    },
                    {
                      "components": [
                        {
                          "label": "Citizen Registrar Region",
                          "labelPosition": "top",
                          "dataSrc": "url",
                          "data": {
                            "url": "Regions?$top={{limit}}&$skip={{skip}}&$orderby=name",
                            "headers": []
                          },
                          "limit": 200,
                          "template": "{{ item.name }}",
                          "key": "person.citizenRegistrarRegion",
                          "type": "select",
                          "input": true,
                          "selectValues": "value",
                          "valueProperty": "id",
                          "widget": "choicesjs",
                          "searchEnabled": true,
                          "validate": {
                            "required": false
                          },
                          "lazyLoad": false
                        }
                      ],
                      "width": 4,
                      "offset": 0,
                      "push": 0,
                      "pull": 0
                    },
                    {
                      "components": [
                        {
                          "label": "Male Registrar",
                          "labelPosition": "top",
                          "key": "person.maleRegistrar",
                          "widget": {
                            "type": "input"
                          },
                          "type": "textfield",
                          "input": true,
                          "validate": {
                            "required": false
                          }
                        }
                      ],
                      "width": 4,
                      "offset": 0,
                      "push": 0,
                      "pull": 0
                    },
                    {
                      "components": [
                        {
                          "label": "Male Registrar Place",
                          "labelPosition": "top",
                          "key": "person.maleRegistrarPlace",
                          "widget": {
                            "type": "input"
                          },
                          "type": "textfield",
                          "input": true,
                          "validate": {
                            "required": false
                          }
                        }
                      ],
                      "width": 4,
                      "offset": 0,
                      "push": 0,
                      "pull": 0
                    },
                    {
                      "components": [
                        {
                          "label": "Male Registrar Region",
                          "labelPosition": "top",
                          "dataSrc": "url",
                          "data": {
                            "url": "Regions?$top={{limit}}&$skip={{skip}}&$orderby=name",
                            "headers": []
                          },
                          "limit": 200,
                          "template": "{{ item.name }}",
                          "key": "person.maleRegistrarRegion",
                          "type": "select",
                          "input": true,
                          "selectValues": "value",
                          "valueProperty": "id",
                          "widget": "choicesjs",
                          "searchEnabled": true,
                          "validate": {
                            "required": false
                          },
                          "lazyLoad": false
                        }
                      ],
                      "width": 4,
                      "offset": 0,
                      "push": 0,
                      "pull": 0
                    },
                    {
                      "components": [
                        {
                          "label": "Vat Number",
                          "labelPosition": "top",
                          "key": "person.vatNumber",
                          "widget": {
                            "type": "input"
                          },
                          "type": "textfield",
                          "input": true,
                          "validate": {
                            "required": false
                          }
                        }
                      ],
                      "width": 3,
                      "offset": 0,
                      "push": 0,
                      "pull": 0
                    },
                    {
                      "components": [
                        {
                          "label": "Vat Office",
                          "labelPosition": "top",
                          "key": "person.vatOffice",
                          "widget": {
                            "type": "input"
                          },
                          "type": "textfield",
                          "input": true,
                          "validate": {
                            "required": false
                          }
                        }
                      ],
                      "width": 3,
                      "offset": 0,
                      "push": 0,
                      "pull": 0
                    },
                    {
                      "components": [
                        {
                          "label": "SSN",
                          "labelPosition": "top",
                          "key": "person.SSN",
                          "widget": {
                            "type": "input"
                          },
                          "type": "textfield",
                          "input": true,
                          "validate": {
                            "required": false
                          }
                        }
                      ],
                      "width": 3,
                      "offset": 0,
                      "push": 0,
                      "pull": 0
                    },
                    {
                      "components": [
                        {
                          "type": "select",
                          "label": "SSN country of issue",
                          "key": "person.SSNCountry",
                          "input": true,
                          "dataSrc": "url",
                          "data": {
                            "url": "Countries?$top={{limit}}&$skip={{skip}}&$select=id,name&$filter=indexof(name, '{{encodeURIComponent(search||'')}}') ge 0&$orderby=name",
                            "headers": []
                          },
                          "template": "{{ item.name }}",
                          "selectValues": "value",
                          "validate": {
                            "required": false
                          },
                          "limit": 15,
                          "dataType": "object",
                          "idPath": "id",
                          "searchField": "search",
                          "searchFields": [
                            "value.id",
                            "value.name"
                          ],
                          "searchThreshold": "0.3",
                          "lazyLoad": true,
                          "searchEnabled": true
                        }
                      ],
                      "width": 3,
                      "offset": 0,
                      "push": 0,
                      "pull": 0
                    },
                    {
                      "components": [
                        {
                          "label": "Insurance Provider",
                          "labelPosition": "top",
                          "key": "person.insuranceProvider",
                          "dataSrc": "url",
                          "data": {
                            "url": "Companies?$top={{limit}}&$skip={{skip}}&$select=id,name&$filter=indexof(name, '{{encodeURIComponent(search||'')}}') ge 0&$orderby=name",
                            "headers": []
                          },
                          "limit": 15,
                          "template": "{{ item.name }}",
                          "type": "select",
                          "input": true,
                          "selectValues": "value",
                          "dataType": "object",
                          "idPath": "id",
                          "searchField": "search",
                          "searchFields": [
                            "value.id",
                            "value.name"
                          ],
                          "widget": "choicesjs",
                          "validate": {
                            "required": false
                          },
                          "searchEnabled": true,
                          "searchThreshold": "0.3",
                          "lazyLoad": true
                        }
                      ],
                      "width": 3,
                      "offset": 0,
                      "push": 0,
                      "pull": 0
                    },
                    {
                      "components": [
                        {
                          "label": "Insurance Number",
                          "labelPosition": "top",
                          "key": "person.insuranceNumber",
                          "widget": {
                            "type": "input"
                          },
                          "type": "textfield",
                          "input": true,
                          "validate": {
                            "required": false,
                            "maxLength": 30
                          }
                        }
                      ],
                      "width": 3,
                      "offset": 0,
                      "push": 0,
                      "pull": 0
                    }
                  ],
                  "customClass": "text-dark",
                  "hideLabel": true,
                  "type": "columns",
                  "input": false
                }
              ]
            },
            {
              "legend": "Personal Information",
              "key": "fieldSet",
              "type": "fieldset",
              "input": false,
              "label": "Personal Information",
              "components": [
                {
                  "columns": [
                    {
                      "components": [
                        {
                          "label": "Birth Date",
                          "labelPosition": "top",
                          "spellcheck": true,
                          "enableTime": false,
                          "customOptions": {
                            "dateFormat": "yyyy-MM-dd",
                            "allowInput": true
                          },
                          "widget": {
                            "type": "calendar"
                          },
                          "key": "person.birthDate",
                          "type": "datetime",
                          "format": "dd/MM/yyyy",
                          "input": true
                        }
                      ],
                      "width": 3,
                      "offset": 0,
                      "push": 0,
                      "pull": 0
                    },
                    {
                      "components": [
                        {
                          "label": "Birth Place",
                          "labelPosition": "top",
                          "spellcheck": true,
                          "widget": {
                            "type": "input"
                          },
                          "key": "person.birthPlace",
                          "type": "textfield",
                          "input": true
                        }
                      ],
                      "width": 3,
                      "offset": 0,
                      "push": 0,
                      "pull": 0
                    },
                    {
                      "components": [
                        {
                          "label": "Birth Place Region",
                          "labelPosition": "top",
                          "key": "person.birthPlaceRegion",
                          "dataSrc": "url",
                          "data": {
                            "url": "Regions?$top={{limit}}&$skip={{skip}}&$orderby=name",
                            "headers": []
                          },
                          "limit": 200,
                          "template": "{{ item.name }}",
                          "type": "select",
                          "input": true,
                          "selectValues": "value",
                          "valueProperty": "id",
                          "widget": "choicesjs",
                          "searchEnabled": true,
                          "validate": {
                            "required": false
                          },
                          "lazyLoad": false
                        }
                      ],
                      "width": 3,
                      "offset": 0,
                      "push": 0,
                      "pull": 0
                    },
                    {
                      "components": [
                        {
                          "label": "Spouse Name",
                          "labelPosition": "top",
                          "key": "person.spouseName",
                          "widget": {
                            "type": "input"
                          },
                          "type": "textfield",
                          "input": true,
                          "validate": {
                            "required": false
                          }
                        }
                      ],
                      "width": 3,
                      "offset": 0,
                      "push": 0,
                      "pull": 0
                    },
                    {
                      "components": [
                        {
                          "label": "Family Status",
                          "labelPosition": "top",
                          "widget": "choicesjs",
                          "dataSrc": "url",
                          "data": {
                            "url": "FamilyStatuses?$orderby=name",
                            "headers": []
                          },
                          "template": "{{ item.name }}",
                          "selectValues": "value",
                          "key": "person.familyStatus",
                          "valueProperty": "id",
                          "searchEnabled": false,
                          "type": "select",
                          "input": true,
                          "lazyLoad": false
                        }
                      ],
                      "width": 3,
                      "offset": 0,
                      "push": 0,
                      "pull": 0
                    },
                    {
                      "components": [
                        {
                          "label": "Military Status",
                          "labelPosition": "top",
                          "widget": "choicesjs",
                          "dataSrc": "url",
                          "data": {
                            "url": "MilitaryStatuses?$orderby=name",
                            "headers": []
                          },
                          "template": "{{ item.name }}",
                          "selectValues": "value",
                          "key": "militaryStatus",
                          "valueProperty": "id",
                          "searchEnabled": false,
                          "type": "select",
                          "input": true,
                          "lazyLoad": false
                        }
                      ],
                      "width": 3,
                      "offset": 0,
                      "push": 0,
                      "pull": 0
                    }
                  ],
                  "customClass": "text-dark",
                  "hideLabel": true,
                  "type": "columns",
                  "input": false
                }
              ]
            },
            {
              "legend": "School Information",
              "key": "fieldSet",
              "type": "fieldset",
              "input": false,
              "label": "School Information",
              "components": [
                {
                  "columns": [
                    {
                      "components": [
                        {
                          "label": "School Graduated",
                          "labelPosition": "top",
                          "key": "schoolGraduated",
                          "widget": {
                            "type": "input"
                          },
                          "type": "textfield",
                          "input": true,
                          "validate": {
                            "required": false
                          }
                        }
                      ],
                      "width": 3,
                      "offset": 0,
                      "push": 0,
                      "pull": 0
                    },
                    {
                      "components": [
                        {
                          "label": "School Graduated Year",
                          "labelPosition": "top",
                          "key": "schoolGraduatedYear",
                          "widget": {
                            "type": "input"
                          },
                          "type": "textfield",
                          "input": true,
                          "validate": {
                            "required": false
                          }
                        }
                      ],
                      "width": 3,
                      "offset": 0,
                      "push": 0,
                      "pull": 0
                    },
                    {
                      "components": [
                        {
                          "label": "School Graduation Number",
                          "labelPosition": "top",
                          "key": "schoolGraduationNumber",
                          "widget": {
                            "type": "input"
                          },
                          "type": "textfield",
                          "input": true,
                          "validate": {
                            "required": false
                          }
                        }
                      ],
                      "width": 3,
                      "offset": 0,
                      "push": 0,
                      "pull": 0
                    },
                    {
                      "components": [
                        {
                          "label": "School Graduation Grade",
                          "labelPosition": "top",
                          "key": "schoolGraduationGrade",
                          "widget": {
                            "type": "input"
                          },
                          "type": "number",
                          "delimiter":true,
                          "decimalLimit":2,
                          "input": true,
                          "validate": {
                            "required": false
                          }
                        }
                      ],
                      "width": 3,
                      "offset": 0,
                      "push": 0,
                      "pull": 0
                    }
                  ],
                  "customClass": "text-dark",
                  "hideLabel": true,
                  "type": "columns",
                  "input": false
                }
              ]
            }
          ]
        },
        {
          "label": "Other Information",
          "components": [
            {
              "legend": "Other Information",
              "key": "fieldSet",
              "type": "fieldset",
              "input": false,
              "label": "Other Information",
              "components": [
                {
                  "columns": [
                    {
                      "components": [
                        {
                          "label": "CustomField 1",
                          "labelPosition": "top",
                          "key": "customField1",
                          "widget": {
                            "type": "input"
                          },
                          "type": "textfield",
                          "input": true,
                          "validate": {
                            "required": false
                          },
                          "defaultValue": ""
                        }
                      ],
                      "width": 3,
                      "offset": 0,
                      "push": 0,
                      "pull": 0
                    },
                    {
                      "components": [
                        {
                          "label": "CustomField 2",
                          "labelPosition": "top",
                          "key": "customField2",
                          "widget": {
                            "type": "input"
                          },
                          "type": "textfield",
                          "input": true,
                          "validate": {
                            "required": false
                          },
                          "defaultValue": ""
                        }
                      ],
                      "width": 3,
                      "offset": 0,
                      "push": 0,
                      "pull": 0
                    },
                    {
                      "components": [
                        {
                          "label": "CustomField 3",
                          "labelPosition": "top",
                          "key": "customField3",
                          "widget": {
                            "type": "input"
                          },
                          "type": "textfield",
                          "input": true,
                          "validate": {
                            "required": false
                          },
                          "defaultValue": ""
                        }
                      ],
                      "width": 3,
                      "offset": 0,
                      "push": 0,
                      "pull": 0
                    },
                    {
                      "components": [
                        {
                          "label": "CustomField 4",
                          "labelPosition": "top",
                          "key": "customField4",
                          "widget": {
                            "type": "input"
                          },
                          "type": "textfield",
                          "input": true,
                          "validate": {
                            "required": false
                          },
                          "defaultValue": ""
                        }
                      ],
                      "width": 3,
                      "offset": 0,
                      "push": 0,
                      "pull": 0
                    },
                    {
                      "components": [
                        {
                          "label": "CustomField 5",
                          "labelPosition": "top",
                          "key": "customField5",
                          "widget": {
                            "type": "input"
                          },
                          "type": "textfield",
                          "input": true,
                          "validate": {
                            "required": false
                          },
                          "defaultValue": ""
                        }
                      ],
                      "width": 3,
                      "offset": 0,
                      "push": 0,
                      "pull": 0
                    },
                    {
                      "components": [
                        {
                          "label": "Notes",
                          "labelPosition": "top",
                          "spellcheck": true,
                          "widget": {
                            "type": "input"
                          },
                          "key": "person.notes",
                          "type": "textarea",
                          "wysiwyg":false,
                          "rows": 3,
                          "input": true
                        }
                      ],
                      "width": 12,
                      "offset": 0,
                      "push": 0,
                      "pull": 0
                    },
                    {
                      "components": [
                        {
                          "label": "Comments",
                          "labelPosition": "top",
                          "widget": "choicesjs",
                          "selectValues": "value",
                          "spellcheck": true,
                          "key": "comments",
                          "type": "textarea",
                          "wysiwyg":false,
                          "rows": 3,
                          "input": true,
                          "searchEnabled": false
                        }
                      ],
                      "width": 12,
                      "offset": 0,
                      "push": 0,
                      "pull": 0
                    }
                  ],
                  "customClass": "text-dark",
                  "hideLabel": true,
                  "type": "columns",
                  "input": false
                }
              ]
            }
          ]
        },
        {
          "label": "Contact Details",
          "components": [
            {
              "legend": "Home Contact Details",
              "key": "fieldSet",
              "type": "fieldset",
              "input": false,
              "label": "Home Contact Details",
              "components": [
                {
                  "columns": [
                    {
                      "components": [
                        {
                          "label": "Country",
                          "labelPosition": "top",
                          "dataSrc": "url",
                          "data": {
                            "url": "Countries?$top={{limit}}&$skip={{skip}}",
                            "headers": []
                          },
                          "limit": 200,
                          "template": "{{ item.name }}",
                          "selectValues": "value",
                          "widget": {
                            "type": "input"
                          },
                          "key": "person.homeCountry",
                          "valueProperty": "name",
                          "type": "select",
                          "input": true,
                          "lazyLoad": false
                        }
                      ],
                      "width": 3,
                      "offset": 0,
                      "push": 0,
                      "pull": 0
                    },
                    {
                      "components": [
                        {
                          "label": "Region",
                          "labelPosition": "top",
                          "dataSrc": "url",
                          "data": {
                            "url": "Regions?$top={{limit}}&$skip={{skip}}&$orderby=name",
                            "headers": []
                          },
                          "limit": 200,
                          "template": "{{ item.name }}",
                          "key": "person.homeAddressRegion",
                          "type": "select",
                          "input": true,
                          "selectValues": "value",
                          "valueProperty": "id",
                          "widget": "choicesjs",
                          "searchEnabled": true,
                          "validate": {
                            "required": false
                          },
                          "lazyLoad": false
                        }
                      ],
                      "width": 3,
                      "offset": 0,
                      "push": 0,
                      "pull": 0
                    },
                    {
                      "components": [
                        {
                          "label": "Postal Code",
                          "labelPosition": "top",
                          "widget": {
                            "type": "input"
                          },
                          "validate": {
                            "required": false
                          },
                          "key": "person.homePostalCode",
                          "type": "textfield",
                          "input": true
                        }
                      ],
                      "width": 3,
                      "offset": 0,
                      "push": 0,
                      "pull": 0
                    },
                    {
                      "components": [
                        {
                          "label": "City",
                          "labelPosition": "top",
                          "widget": {
                            "type": "input"
                          },
                          "validate": {
                            "required": false
                          },
                          "key": "person.homeCity",
                          "type": "textfield",
                          "input": true
                        }
                      ],
                      "width": 3,
                      "offset": 0,
                      "push": 0,
                      "pull": 0
                    },
                    {
                      "components": [
                        {
                          "label": "Address",
                          "labelPosition": "top",
                          "widget": {
                            "type": "input"
                          },
                          "validate": {
                            "required": false
                          },
                          "key": "person.homeAddress",
                          "type": "textfield",
                          "input": true
                        }
                      ],
                      "width": 3,
                      "offset": 0,
                      "push": 0,
                      "pull": 0
                    },
                    {
                      "components": [
                        {
                          "label": "Phone",
                          "labelPosition": "top",
                          "spellcheck": true,
                          "widget": {
                            "type": "input"
                          },
                          "validate": {
                            "pattern": "^\\+[0-9]{10,15}$",
                            "customMessage": "Phone number must contain the country code and a total of 10 to 15 digits",
                            "required": false
                          },
                          "key": "person.homePhone",
                          "type": "textfield",
                          "input": true,
                          "description": "Input the student's home phone number. It must contain the country code with \"+\" prefix."
                        }
                      ],
                      "width": 3,
                      "offset": 0,
                      "push": 0,
                      "pull": 0
                    },
                    {
                      "components": [
                        {
                          "label": "Mobile Phone",
                          "type": "textfield",
                          "labelPosition": "top",
                          "validate": {
                            "pattern": "^\\+[0-9]{10,15}$",
                            "customMessage": "Phone number must contain the country code and a total of 10 to 15 digits",
                            "required": false
                          },
                          "input": true,
                          "key": "person.mobilePhone",
                          "widget": {
                            "type": "input"
                          },
                          "description": "Input the student's mobile phone number. It must contain the country code with \"+\" prefix."
                        }
                      ],
                      "width": 3,
                      "offset": 0,
                      "push": 0,
                      "pull": 0
                    },
                    {
                      "components": [
                        {
                          "label": "Email",
                          "labelPosition": "top",
                          "type": "email",
                          "input": true,
                          "selectValues": "value",
                          "key": "person.email",
                          "widget": "choicesjs",
                          "description": "This should have a valid email format eg. user@example.com"
                        }
                      ],
                      "width": 3,
                      "offset": 0,
                      "push": 0,
                      "pull": 0
                    },
                    {
                      "components": [
                        {
                          "label": "Alternate Email",
                          "labelPosition": "top",
                          "type": "email",
                          "input": true,
                          "key": "person.alternateEmail",
                          "widget": {
                            "type": "input"
                          },
                          "description": "This should have a valid email format eg. user@example.com"
                        }
                      ],
                      "width": 3,
                      "offset": 0,
                      "push": 0,
                      "pull": 0
                    }
                  ],
                  "customClass": "text-dark",
                  "hideLabel": true,
                  "type": "columns",
                  "input": false
                }
              ]
            },
            {
              "legend": "Temporary Contact Details",
              "key": "fieldSet",
              "type": "fieldset",
              "input": false,
              "label": "Temporary Contact Details",
              "components": [
                {
                  "columns": [
                    {
                      "components": [
                        {
                          "label": "Country",
                          "labelPosition": "top",
                          "dataSrc": "url",
                          "data": {
                            "url": "Countries?$top={{limit}}&$skip={{skip}}",
                            "headers": []
                          },
                          "limit": 200,
                          "template": "{{ item.name }}",
                          "selectValues": "value",
                          "widget": {
                            "type": "input"
                          },
                          "key": "person.temporaryCountry",
                          "valueProperty": "name",
                          "type": "select",
                          "lazyLoad": false,
                          "input": true
                        }
                      ],
                      "width": 3,
                      "offset": 0,
                      "push": 0,
                      "pull": 0
                    },
                    {
                      "components": [
                        {
                          "label": "Region",
                          "labelPosition": "top",
                          "dataSrc": "url",
                          "data": {
                            "url": "Regions?$top={{limit}}&$skip={{skip}}&$orderby=name",
                            "headers": []
                          },
                          "limit": 200,
                          "template": "{{ item.name }}",
                          "key": "person.temporaryAddressRegion",
                          "type": "select",
                          "input": true,
                          "selectValues": "value",
                          "valueProperty": "id",
                          "widget": "choicesjs",
                          "searchEnabled": true,
                          "validate": {
                            "required": false
                          },
                          "lazyLoad": false
                        }
                      ],
                      "width": 3,
                      "offset": 0,
                      "push": 0,
                      "pull": 0
                    },
                    {
                      "components": [
                        {
                          "label": "Postal Code",
                          "labelPosition": "top",
                          "widget": {
                            "type": "input"
                          },
                          "validate": {
                            "required": false
                          },
                          "key": "person.temporaryPostalCode",
                          "type": "textfield",
                          "input": true
                        }
                      ],
                      "width": 3,
                      "offset": 0,
                      "push": 0,
                      "pull": 0
                    },
                    {
                      "components": [
                        {
                          "label": "City",
                          "labelPosition": "top",
                          "widget": {
                            "type": "input"
                          },
                          "validate": {
                            "required": false
                          },
                          "key": "person.temporaryCity",
                          "type": "textfield",
                          "input": true
                        }
                      ],
                      "width": 3,
                      "offset": 0,
                      "push": 0,
                      "pull": 0
                    },
                    {
                      "components": [
                        {
                          "label": "Address",
                          "labelPosition": "top",
                          "widget": {
                            "type": "input"
                          },
                          "validate": {
                            "required": false
                          },
                          "key": "person.temporaryAddress",
                          "type": "textfield",
                          "input": true
                        }
                      ],
                      "width": 3,
                      "offset": 0,
                      "push": 0,
                      "pull": 0
                    },
                    {
                      "components": [
                        {
                          "label": "Phone",
                          "labelPosition": "top",
                          "spellcheck": true,
                          "widget": {
                            "type": "input"
                          },
                          "validate": {
                            "pattern": "^\\+[0-9]{10,15}$",
                            "customMessage": "Phone number must contain the country code and a total of 10 to 15 digits",
                            "required": false
                          },
                          "key": "person.temporaryPhone",
                          "type": "textfield",
                          "input": true,
                          "description": "Input the student's temporary home phone number. It must contain the country code with \"+\" prefix."
                        }
                      ],
                      "width": 3,
                      "offset": 0,
                      "push": 0,
                      "pull": 0
                    }
                  ],
                  "customClass": "text-dark",
                  "hideLabel": true,
                  "type": "columns",
                  "input": false
                }
              ]
            }
          ]
        },
        {
          "legend": "Other languages",
          "key": "fieldSet",
          "type": "fieldset",
          "input": false,
          "label": "Other languages",

          "components": [{
            "label": "",
            "hideLabel": true,
            "key": "person.locales",
            "type": "datagrid",
            "disableAddingRemovingRows": true,
            "input": true,
            "customClass": "fix-panel-for-locales",
            "components": [{
              "collapsible": false,
              "hideLabel": true,
              "key": "panel",
              "type": "panel",
              "title": "",
              "hideTitle": true,
              "input": false,
              "tableView": false,
              "components": [
                {
                  "content": "<span class=\"h4 text-secondary font-weight-normal\">{{instance.t(row.inLanguage)}}</span>",
                  "refreshOnChange": false,
                  "key": "html",
                  "type": "htmlelement",
                  "input": false,
                  "tableView": false,
                  "customConditional": "show = row.inLanguage && row.inLanguage.length"
              },
              {
                "label": "Columns",
                "columns": [
                    {
                        "components": [
                          {
                            "label": "Given Name",
                            "tableView": true,
                            "key": "givenName",
                            "type": "textfield",
                            "input": true
                          },
                          {
                            "label": "Mother's Name",
                            "tableView": true,
                            "key": "motherName",
                            "type": "textfield",
                            "input": true
                          }
                        ],
                        "width": 4
                    },
                    {
                        "components": [
                          {
                            "label": "Family Name",
                            "tableView": true,
                            "key": "familyName",
                            "type": "textfield",
                            "input": true
                          },
                          {
                            "label": "Birth Place",
                            "tableView": true,
                            "key": "birthPlace",
                            "type": "textfield",
                            "input": true
                          }
                        ],
                        "width": 4
                    },
                    {
                        "components": [
                          {
                            "label": "Father's Name",
                            "tableView": true,
                            "key": "fatherName",
                            "type": "textfield",
                            "input": true
                          }
                        ],
                        "width": 4
                    }
                ],
                "key": "columns",
                "type": "columns",
                "input": false,
                "tableView": false
            }
              ]
            }]
          }]

        }
      ]
    },
    {
      "type": "button",
      "theme": "btn btn-indigo",
      "label": "Submit",
      "key": "submit",
      "disableOnInvalid": true,
      "input": true
    },
    {
      "components": [
        {
          "input": true,
          "label": "Cancel",
          "tableView": false,
          "key": "cancel",
          "action": "event",
          "disableOnInvalid": false,
          "theme": "secondary",
          "type": "button",
          "event": "cancelEvent",
          "redirect": "/students/${id}",
          "customClass": "pull-right float-right mr-0"
        }
      ],
      "width": 6
    }
  ]
}

