{
    "model": "Courses",
    "settings": {
      "i18n": {
        "el": {
          "Course": "Μάθημα",  
          "Replaced by": "Αντικαταστάθηκε από",
          "Replace course": "Αντικατάσταση μαθήματος",
          "Specify the course that will replace the current one. If the current course is enabled, after its replacement it will be automatically set as disabled": "Ορίστε το μάθημα που θα αντικαταστήσει το επιλεγμένο. Σε περίπτωση που το προς αντικατάσταση μάθημα είναι ενεργό, μετά την ολοκλήρωση της διαδικασίας θα τεθεί αυτόματα ως ανενεργό.",
          "Course parts cannot be replaced by other courses": "Τα μέρη μαθήματος δεν μπορούν να αντικατασταθούν."
        }
      }
    },
    "components": [
      {
        "type": "fieldset",
        "legend": "Replace course",
        "components": [
          {
            "customClass": "text-dark",
            "hideLabel": true,
            "type": "columns",
            "input": true,
            "columns": [
              {
                "components": [
                  {
                    "label": "Course",
                    "labelPosition": "top",
                    "widget": {
                      "type": "input"
                    },
                    "validate": {
                      "required": false
                    },
                    "calculateValue": "value = \"[\" + data.displayCode + \"]\" + \" - \" + data.name",
                    "type": "textfield",
                    "input": true,
                    "disabled": true
                  }
                ],
                "width": 6
              },
              {
                "components": [
                  {
                    "label": "Course Structure Type",
                    "labelPosition": "top",
                    "widget": "choicesjs",
                    "searchEnabled": false,
                    "dataSrc": "url",
                    "data": {
                      "values": [],
                      "url": "/CourseStructureTypes?$top=-1&$skip=0&$select=id,name"
                    },
                    "dataType": "string",
                    "validate": {
                      "required": false
                    },
                    "selectThreshold": 0.3,
                    "lazyLoad": false,
                    "template": "{{ item.name }}",
                    "valueProperty": "id",
                    "selectValues": "value",
                    "key": "courseStructureType",
                    "type": "select",
                    "input": true,
                    "disabled": true
                  }
                ],
                "width": 4
              },
              {
                "components": [
                  {
                    "label": "Enabled",
                    "labelPosition": "top",
                    "widget": "choicesjs",
                    "searchEnabled": false,
                    "data": {
                      "values": [
                        {
                          "label": "No",
                          "value": "0"
                        },
                        {
                          "label": "Yes",
                          "value": "1"
                        }
                      ]
                    },
                    "validate": {
                      "required": false
                    },
                    "selectThreshold": 0.3,
                    "key": "isEnabled",
                    "type": "select",
                    "input": true,
                    "defaultValue": "0",
                    "disabled": "true"
                  }
                ],
                "width": 3
              },
              {
                "components": [
                  {
                    "label": "Replaced by",
                    "dataSrc": "url",
                    "customConditional": "show = !!(data.department) && data.courseStructureType != 8;",
                    "data": {
                      "values": [],
                      "url": "/Courses?$top=-1&$skip=0&$select=id,name,displayCode&$filter=department eq {{data.department}} and courseStructureType ne 8",
                      "headers": []
                    },
                    "template": "<span>[{{item.displayCode}}] - {{ item.name }}</span>",
                    "dataType": "string",
                    "valueProperty": "id",
                    "selectValues": "value",
                    "key": "replacedByCourse",
                    "lazyLoad": false,
                    "type": "select",
                    "input": true,
                    "description": "Specify the course that will replace the current one. If the current course is enabled, after its replacement it will be automatically set as disabled"
                  }
                ],
                "width": 8,
                "offset": 0,
                "push": 0,
                "pull": 0,
                "size": "md"
              },
              {
                "components": [
                  {
                    "customConditional": "show = data.courseStructureType == 8;",
                    "content": "Course parts cannot be replaced by other courses",
                    "customClass": "text-indigo",
                    "type": "htmlelement"
                  }
                ],
                "width": 8,
                "offset": 0,
                "push": 0,
                "pull": 0,
                "size": "md"
              }
            ]
          }
        ]
      },
      {
        "type": "button",
        "label": "Submit",
        "key": "submit",
        "disableOnInvalid": true,
        "input": true
      }
    ]
  }
  