{
  "model": "CandidateStudents",
  "settings": {
    "i18n": {
      "el": {
        "SSN": "ΑΜΚΑ",
        "Candidate Information": "Πληροφορίες υποψηφίου",
        "AlternateEmail": "Εναλλακτικό email"
      }
    }
  },
  "components": [
    {
      "label": "Tabs",
      "type": "tabs",
      "key": "tabs1",
      "path": "tabs1",
      "legend": "New student",
      "input": false,
      "components": [
        {
          "label": "Candidate Information",
          "components": [
            {
              "legend": "Candidate Information",
              "key": "fieldset",
              "type": "fieldset",
              "input": false,
              "components": [
                {
                  "columns": [
                    {
                      "components": [
                        {
                          "label": "Inscription Number",
                          "labelPosition": "top",
                          "widget": {
                            "type": "input"
                          },
                          "validate": {
                            "required": true
                          },
                          "type": "number",
                          "input": true,
                          "key": "inscriptionNumber",
                          "disabled": true
                        }
                      ],
                      "width": 3,
                      "offset": 0,
                      "push": 0,
                      "pull": 0
                    },
                    {
                      "components": [
                        {
                          "label": "Given Name",
                          "key": "person.givenName",
                          "labelPosition": "top",
                          "widget": {
                            "type": "input"
                          },
                          "validate": {
                            "required": true
                          },
                          "type": "textfield",
                          "input": true
                        }
                      ],
                      "width": 3,
                      "offset": 0,
                      "push": 0,
                      "pull": 0
                    },
                    {
                      "components": [
                        {
                          "label": "Family Name",
                          "labelPosition": "top",
                          "widget": "choicesjs",
                          "selectValues": "value",
                          "type": "textfield",
                          "key": "person.familyName",
                          "input": true,
                          "validate": {
                            "required": true
                          }
                        }
                      ],
                      "width": 3,
                      "offset": 0,
                      "push": 0,
                      "pull": 0
                    },
                    {
                      "components": [
                        {
                          "label": "Father's Name",
                          "labelPosition": "top",
                          "widget": "choicesjs",
                          "selectValues": "value",
                          "type": "textfield",
                          "input": true,
                          "key": "person.fatherName",
                          "validate": {
                            "required": false
                          }
                        }
                      ],
                      "width": 3,
                      "offset": 0,
                      "push": 0,
                      "pull": 0
                    },
                    {
                      "components": [
                        {
                          "label": "Mother's Name",
                          "labelPosition": "top",
                          "key": "person.motherName",
                          "widget": {
                            "type": "input"
                          },
                          "type": "textfield",
                          "input": true,
                          "validate": {
                            "required": false
                          }
                        }
                      ],
                      "width": 3,
                      "offset": 0,
                      "push": 0,
                      "pull": 0
                    },
                    {
                      "components": [
                        {
                          "label": "Gender",
                          "labelPosition": "top",
                          "dataSrc": "url",
                          "data": {
                            "url": "Genders",
                            "headers": []
                          },
                          "template": "{{ item.name }}",
                          "key": "person.gender",
                          "type": "select",
                          "dataType": "object",
                          "idPath": "id",
                          "input": true,
                          "selectValues": "value",
                          "widget": "choicesjs",
                          "searchEnabled": false,
                          "validate": {
                            "required": true
                          },
                          "lazyLoad": false
                        }
                      ],
                      "width": 3,
                      "offset": 0,
                      "push": 0,
                      "pull": 0
                    },
                    {
                      "components": [
                        {
                          "label": "Nationality",
                          "labelPosition": "top",
                          "dataSrc": "url",
                          "data": {
                            "url": "Nationalities?$top={{limit}}&$skip={{skip}}",
                            "headers": []
                          },
                          "limit": 200,
                          "template": "{{ item.name }}",
                          "key": "person.nationality",
                          "dataType": "object",
                          "idPath": "id",
                          "input": true,
                          "selectValues": "value",
                          "widget": "choicesjs",
                          "type": "select",
                          "searchEnabled": true,
                          "validate": {
                            "required": false
                          },
                          "lazyLoad": false
                        }
                      ],
                      "width": 3,
                      "offset": 0,
                      "push": 0,
                      "pull": 0
                    }
                  ],
                  "customClass": "text-dark",
                  "hideLabel": true,
                  "type": "columns",
                  "input": false
                }
              ]
            },
            {
              "legend": "Inscription Information",
              "key": "fieldset",
              "type": "fieldset",
              "input": false,
              "components": [
                {
                  "columns": [
                    {
                      "components": [
                        {
                          "label": "Inscription Year",
                          "labelPosition": "top",
                          "key": "inscriptionYear",
                          "dataType": "object",
                          "dataPath": "id",
                          "validate": {
                            "required": true
                          },
                          "type": "select",
                          "searchEnabled": false,
                          "dataSrc": "url",
                          "data": {
                            "url": "AcademicYears/?$select=id,name,alternateName&$top={{limit}}&$skip={{skip}}&$orderby=id desc",
                            "headers": []
                          },
                          "limit": 20,
                          "template": "{{ item.alternateName }}",
                          "input": true,
                          "lazyLoad": true,
                          "selectValues": "value",
                          "widget": "choicesjs",
                          "description": "Select the academic year the student was enrolled."
                        }

                      ],
                      "width": 3,
                      "offset": 0,
                      "push": 0,
                      "pull": 0
                    },
                    {
                      "components": [
                        {
                          "label": "Inscription Period",
                          "labelPosition": "top",
                          "widget": "choicesjs",
                          "dataSrc": "url",
                          "data": {
                            "url": "AcademicPeriods/?$select=id,name",
                            "headers": []
                          },
                          "template": "{{ item.name }}",
                          "selectValues": "value",
                          "key": "inscriptionPeriod",
                          "dataType": "object",
                          "dataPath": "id",
                          "validate": {
                            "required": true
                          },
                          "type": "select",
                          "input": true,
                          "searchEnabled": false,
                          "description": "Select the academic period the student was enrolled."
                        }
                      ],
                      "width": 3,
                      "offset": 0,
                      "push": 0,
                      "pull": 0
                    },
                    {
                      "components": [
                        {
                          "label": "Inscription semester",
                          "labelPosition": "top",
                          "widget": "choicesjs",
                          "dataSrc": "url",
                          "data": {
                            "url": "Semesters",
                            "headers": []
                          },
                          "template": "{{ item.name }}",
                          "selectValues": "value",
                          "key": "inscriptionSemester",
                          "validate": {
                            "required": true
                          },
                          "type": "select",
                          "input": true,
                          "lazyLoad": false,
                          "searchEnabled": false
                        }
                      ],
                      "width": 3,
                      "offset": 0,
                      "push": 0,
                      "pull": 0
                    },
                    {
                      "components": [
                        {
                          "label": "Inscription date",
                          "labelPosition": "top",
                          "enableTime": false,
                          "widget": {
                            "type": "input"
                          },
                          "key": "inscriptionDate",
                          "validate": {
                            "required": false
                          },
                          "type": "datetime",
                          "format": "dd/MM/yyyy",
                          "input": true
                        }
                      ],
                      "width": 3,
                      "offset": 0,
                      "push": 0,
                      "pull": 0
                    },
                    {
                      "components": [
                        {
                          "label": "Inscription mode",
                          "widget": "choicesjs",
                          "dataSrc": "url",
                          "labelPosition": "top",
                          "searchEnabled": true,
                          "data": {
                            "values": [],
                            "url": "/InscriptionModes?$orderby=name&$top={{limit}}&$skip={{skip}}",
                            "headers": []
                          },
                          "lazyLoad": false,
                          "limit": 50,
                          "template": "{{ item.name }}",
                          "selectThreshold": 0.3,
                          "key": "inscriptionMode",
                          "idPath": "id",
                          "dataType": "object",
                          "validate": {
                            "required": true
                          },
                          "type": "select",
                          "selectValues": "value",
                          "input": true,
                          "disabled": false
                        }
                      ],
                      "width": 6,
                      "offset": 0,
                      "push": 0,
                      "pull": 0
                    },
                    {
                      "components": [
                        {
                          "label": "Inscription index",
                          "labelPosition": "top",
                          "key": "inscriptionIndex",
                          "type": "number",
                          "input": true,
                          "selectValues": "value",
                          "widget": "choicesjs",
                          "validate": {
                            "required": false
                          }
                        }
                      ],
                      "width": 3,
                      "offset": 0,
                      "push": 0,
                      "pull": 0
                    },
                    {
                      "components": [
                        {
                          "label": "Inscription decision",
                          "labelPosition": "top",
                          "widget": {
                            "type": "input"
                          },
                          "validate": {
                            "required": false
                          },
                          "type": "textfield",
                          "input": true,
                          "key": "inscriptionDecision"
                        }
                      ],
                      "width": 3,
                      "offset": 0,
                      "push": 0,
                      "pull": 0
                    },
                    {
                      "components": [
                        {
                          "label": "Inscription points",
                          "labelPosition": "top",
                          "widget": {
                            "type": "input"
                          },
                          "validate": {
                            "required": false
                          },
                          "type": "number",
                          "input": true,
                          "key": "inscriptionPoints"
                        }
                      ],
                      "width": 3,
                      "offset": 0,
                      "push": 0,
                      "pull": 0
                    },
                    {
                      "components": [
                        {
                          "label": "Inscription department",
                          "labelPosition": "top",
                          "key": "inscriptionDepartment",
                          "type": "textfield",
                          "input": true,
                          "selectValues": "value",
                          "widget": "choicesjs"
                        }
                      ],
                      "width": 5,
                      "offset": 0,
                      "push": 0,
                      "pull": 0
                    }
                  ],
                  "customClass": "text-dark",
                  "hideLabel": true,
                  "type": "columns",
                  "input": false
                }
              ]
            },
            {
              "legend": "Rating Information",
              "key": "fieldSet",
              "type": "fieldset",
              "input": false,
              "label": "Rating Information",
              "components": [
                {
                  "columns": [
                    {
                      "components": [
                        {
                          "label": "Department",
                          "labelPosition": "top",
                          "key": "studyProgram.department.name",
                          "type": "textfield",
                          "input": true,
                          "disabled": true
                        }
                      ],
                      "width": 9,
                      "offset": 0,
                      "push": 0,
                      "pull": 0
                    },
                    {
                      "components": [
                        {
                          "label": "Study Program",
                          "labelPosition": "top",
                          "key": "studyProgram.name",
                          "type": "textfield",
                          "input": true,
                          "disabled": true
                        }
                      ],
                      "width": 6,
                      "offset": 0,
                      "push": 0,
                      "pull": 0
                    }
                  ],
                  "customClass": "text-dark",
                  "hideLabel": true,
                  "type": "columns",
                  "input": false
                }
              ]
            }
          ]
        },
        {
          "label": "Personal Information",
          "components": [
            {
              "legend": "Citizen Information",
              "key": "fieldSet",
              "type": "fieldset",
              "input": false,
              "label": "ID Information",
              "components": [
                {
                  "columns": [
                    {
                      "components": [
                        {
                          "label": "Identity Card",
                          "labelPosition": "top",
                          "key": "person.identityCard",
                          "widget": {
                            "type": "input"
                          },
                          "type": "textfield",
                          "input": true,
                          "validate": {
                            "required": false
                          }
                        }
                      ],
                      "width": 3,
                      "offset": 0,
                      "push": 0,
                      "pull": 0
                    },
                    {
                      "components": [
                        {
                          "type": "select",
                          "label": "Identity Type",
                          "key": "person.identityType",
                          "input": true,
                          "dataSrc": "url",
                          "data": {
                            "url": "IdentityTypes",
                            "headers": []
                          },
                          "template": "{{ item.name }}",
                          "selectValues": "value",
                          "validate": {
                            "required": false
                          },
                          "valueProperty": "id",
                          "searchEnabled": false,
                          "lazyLoad": false
                        }
                      ],
                      "width": 3,
                      "offset": 0,
                      "push": 0,
                      "pull": 0
                    },
                    {
                      "components": [
                        {
                          "label": "SSN",
                          "labelPosition": "top",
                          "key": "person.SSN",
                          "widget": {
                            "type": "input"
                          },
                          "type": "textfield",
                          "input": true,
                          "validate": {
                            "required": false
                          }
                        }
                      ],
                      "width": 3,
                      "offset": 0,
                      "push": 0,
                      "pull": 0
                    },
                    {
                      "components": [
                        {
                          "label": "Birth Date",
                          "labelPosition": "top",
                          "spellcheck": true,
                          "enableTime": false,
                          "widget": {
                            "type": "input"
                          },
                          "key": "person.birthDate",
                          "type": "datetime",
                          "format": "dd/MM/yyyy",
                          "input": true,
                          "defaultValue": null
                        }
                      ],
                      "width": 3,
                      "offset": 0,
                      "push": 0,
                      "pull": 0
                    }
                  ],
                  "customClass": "text-dark",
                  "hideLabel": true,
                  "type": "columns",
                  "input": false
                }
              ]
            },
            {
              "legend": "School Information",
              "key": "fieldSet",
              "type": "fieldset",
              "input": false,
              "label": "School Information",
              "components": [
                {
                  "columns": [
                    {
                      "components": [
                        {
                          "label": "School Graduated",
                          "labelPosition": "top",
                          "key": "schoolGraduated",
                          "widget": {
                            "type": "input"
                          },
                          "type": "textfield",
                          "input": true,
                          "validate": {
                            "required": false
                          }
                        }
                      ],
                      "width": 3,
                      "offset": 0,
                      "push": 0,
                      "pull": 0
                    },
                    {
                      "components": [
                        {
                          "label": "School Graduated Year",
                          "labelPosition": "top",
                          "key": "schoolGraduatedYear",
                          "widget": {
                            "type": "input"
                          },
                          "type": "textfield",
                          "input": true,
                          "validate": {
                            "required": false
                          }
                        }
                      ],
                      "width": 3,
                      "offset": 0,
                      "push": 0,
                      "pull": 0
                    },
                    {
                      "components": [
                        {
                          "label": "School Graduation Number",
                          "labelPosition": "top",
                          "key": "schoolGraduationNumber",
                          "widget": {
                            "type": "input"
                          },
                          "type": "textfield",
                          "input": true,
                          "validate": {
                            "required": false
                          }
                        }
                      ],
                      "width": 3,
                      "offset": 0,
                      "push": 0,
                      "pull": 0
                    },
                    {
                      "components": [
                        {
                          "label": "School Graduation Grade",
                          "labelPosition": "top",
                          "key": "schoolGraduationGrade",
                          "widget": {
                            "type": "input"
                          },
                          "type": "number",
                          "delimiter": true,
                          "decimalLimit": 2,
                          "input": true,
                          "validate": {
                            "required": false
                          }
                        }
                      ],
                      "width": 3,
                      "offset": 0,
                      "push": 0,
                      "pull": 0
                    }
                  ],
                  "customClass": "text-dark",
                  "hideLabel": true,
                  "type": "columns",
                  "input": false
                }
              ]
            }
          ]
        },
        {
          "label": "Contact Details",
          "components": [
            {
              "legend": "Home Contact Details",
              "key": "fieldSet",
              "type": "fieldset",
              "input": false,
              "label": "Home Contact Details",
              "components": [
                {
                  "columns": [
                    {
                      "components": [
                        {
                          "label": "Address",
                          "labelPosition": "top",
                          "widget": {
                            "type": "input"
                          },
                          "validate": {
                            "required": false
                          },
                          "key": "person.homeAddress",
                          "type": "textfield",
                          "input": true
                        }
                      ],
                      "width": 3,
                      "offset": 0,
                      "push": 0,
                      "pull": 0
                    },
                    {
                      "components": [
                        {
                          "label": "Postal Code",
                          "labelPosition": "top",
                          "widget": {
                            "type": "input"
                          },
                          "validate": {
                            "required": false
                          },
                          "key": "person.homePostalCode",
                          "type": "textfield",
                          "input": true
                        }
                      ],
                      "width": 3,
                      "offset": 0,
                      "push": 0,
                      "pull": 0
                    },
                    {
                      "components": [
                        {
                          "label": "City",
                          "labelPosition": "top",
                          "widget": {
                            "type": "input"
                          },
                          "validate": {
                            "required": false
                          },
                          "key": "person.homeCity",
                          "type": "textfield",
                          "input": true
                        }
                      ],
                      "width": 3,
                      "offset": 0,
                      "push": 0,
                      "pull": 0
                    },
                    {
                      "components": [
                        {
                          "label": "Phone",
                          "labelPosition": "top",
                          "spellcheck": true,
                          "widget": {
                            "type": "input"
                          },
                          "key": "person.homePhone",
                          "type": "number",
                          "input": true
                        }
                      ],
                      "width": 3,
                      "offset": 0,
                      "push": 0,
                      "pull": 0
                    },
                    {
                      "components": [
                        {
                          "label": "Mobile Phone",
                          "labelPosition": "top",
                          "type": "number",
                          "input": true,
                          "selectValues": "value",
                          "key": "person.mobilePhone",
                          "widget": "choicesjs"
                        }
                      ],
                      "width": 3,
                      "offset": 0,
                      "push": 0,
                      "pull": 0
                    },
                    {
                      "components": [
                        {
                          "label": "Email",
                          "labelPosition": "top",
                          "type": "email",
                          "input": true,
                          "selectValues": "value",
                          "key": "person.email",
                          "widget": "choicesjs"
                        }
                      ],
                      "width": 3,
                      "offset": 0,
                      "push": 0,
                      "pull": 0
                    },
                    {
                      "components": [
                        {
                          "label": "Alternate Email",
                          "labelPosition": "top",
                          "type": "email",
                          "input": true,
                          "key": "person.alternateEmail",
                          "widget": {
                            "type": "input"
                          }
                        }
                      ],
                      "width": 3,
                      "offset": 0,
                      "push": 0,
                      "pull": 0
                    }
                  ],
                  "customClass": "text-dark",
                  "hideLabel": true,
                  "type": "columns",
                  "input": false
                }
              ]
            },
            {
              "legend": "Temporary Contact Details",
              "key": "fieldSet",
              "type": "fieldset",
              "input": false,
              "label": "Temporary Contact Details",
              "components": [
                {
                  "columns": [
                    {
                      "components": [
                        {
                          "label": "Address",
                          "labelPosition": "top",
                          "widget": {
                            "type": "input"
                          },
                          "validate": {
                            "required": false
                          },
                          "key": "person.temporaryAddress",
                          "type": "textfield",
                          "input": true
                        }
                      ],
                      "width": 3,
                      "offset": 0,
                      "push": 0,
                      "pull": 0
                    },
                    {
                      "components": [
                        {
                          "label": "Postal Code",
                          "labelPosition": "top",
                          "widget": {
                            "type": "input"
                          },
                          "validate": {
                            "required": false
                          },
                          "key": "person.temporaryPostalCode",
                          "type": "textfield",
                          "input": true
                        }
                      ],
                      "width": 3,
                      "offset": 0,
                      "push": 0,
                      "pull": 0
                    },
                    {
                      "components": [
                        {
                          "label": "City",
                          "labelPosition": "top",
                          "widget": {
                            "type": "input"
                          },
                          "validate": {
                            "required": false
                          },
                          "key": "person.temporaryCity",
                          "type": "textfield",
                          "input": true
                        }
                      ],
                      "width": 3,
                      "offset": 0,
                      "push": 0,
                      "pull": 0
                    },
                    {
                      "components": [
                        {
                          "label": "Phone",
                          "labelPosition": "top",
                          "spellcheck": true,
                          "widget": {
                            "type": "input"
                          },
                          "key": "person.temporaryPhone",
                          "type": "number",
                          "input": true
                        }
                      ],
                      "width": 3,
                      "offset": 0,
                      "push": 0,
                      "pull": 0
                    }
                  ],
                  "customClass": "text-dark",
                  "hideLabel": true,
                  "type": "columns",
                  "input": false
                }
              ]
            }
          ]
        }
      ]
    },
    {
      "type": "button",
      "theme": "btn btn-indigo",
      "label": "Submit",
      "key": "submit",
      "disableOnInvalid": true,
      "input": true
    }
  ]
}
