{
  "title": "Class Instructors",
  "model": "courseClassInstructors",
  "searchExpression":"indexof(instructor/department/name, '${text}') ge 0 or indexof(instructor/category, '${text}') ge 0 or indexof(instructor/familyName, '${text}') ge 0 or indexof(instructor/givenName, '${text}') ge 0 or indexof(instructor/email, '${text}') ge 0)",
  "columns": [
    {
      "name":"instructor/familyName",
      "property": "familyName",
      "title":"Instructors.FullName",
      "formatter": "TemplateFormatter",
      "formatString": "${familyName} ${givenName}"
    },
    {
      "name":"instructor/givenName",
      "property": "givenName",
      "title":"Instructors.GivenName",
      "hidden": true
    },
    {
      "name":"instructor/department/name",
      "property": "departmentName",
      "title":"Instructors.Department"
    },
    {
      "name":"instructor/category",
      "property": "category",
      "title":"Instructors.Category"
    },
    {
      "name":"instructor/email",
      "property": "email",
      "title":"Instructors.Email"
    },
    {
      "name":"instructor/workPhone",
      "property": "workPhone",
      "title":"Instructors.WorkPhone"
    },
    {
      "name":"teachingHours",
      "property": "teachingHours",
      "title":"Instructors.TeachingHours"
    },
    {
      "name":"instructor/status/alternateName",
      "property": "status",
      "title":"Instructors.Status",
      "formatter": "TranslationFormatter",
      "formatString": "InstructorStatuses.${value}"

    },
    {
      "name":"role/alternateName",
      "property": "role",
      "title":"Instructors.Role",
      "formatter": "TranslationFormatter",
      "formatString": "InstructorRoles.${value}"

    },
    {
      "name":"id",
      "hidden": "true"
    },
    {
      "name": "courseClass",
      "property": "courseClassId",
      "formatter": "ButtonFormatter",
      "className": "text-center",
      "formatOptions": {
        "buttonContent": "<i class=\"far fa-edit text-indigo\"></i>",
        "buttonClass": "btn btn-default",
        "commands": ["/classes", "${courseClassId}", "dashboard", "instructors",
          {
            "outlets":
              {
                "modal":["${id}", "edit"]
              }
          }
        ]
      }
    },
    {
      "name": "instructor/id",
      "property": "instructorId",
      "formatter": "ButtonFormatter",
      "formatString": "#/instructors/${instructorId}/dashboard/overview",
      "className": "text-center",
      "formatOptions": {
        "buttonContent": "<i class=\"far fa-eye text-indigo\"></i>",
        "buttonClass": "btn btn-default"
      }
    }
  ],
  "defaults":{
  },
  "criteria": [
    {
      "name": "instructorName",
      "filter": "(indexof(instructor/familyName, '${value}') ge 0 or indexof(instructor/givenName, '${value}') ge 0)",
      "type": "text"
    },
    {
      "name": "departmentName",
      "filter": "(indexof(instructor/department/name, '${value}') ge 0)",
      "type": "text"
    },
    {
      "name": "category",
      "filter": "(indexof(instructor/category, '${value}') ge 0)",
      "type": "text"
    },
    {
      "name": "status",
      "filter": "(instructor/status eq '${value}')",
      "type": "text"
    },
    {
      "name": "role",
      "filter": "(role eq '${value}')",
      "type": "text"
    },
    {
      "name": "workphone",
      "filter": "(indexof(instructor/workphone, '${value}') ge 0)",
      "type": "text"
    },
    {
      "name": "courseClassID",
      "filter": "(courseClass eq '${value}')",
      "type": "text"
    }
  ]
}
